<svg
    xmlns="http://www.w3.org/2000/svg"
    viewBox="0 0 408 408"
    id="vector">
    <path
        id="path"
        d="M 408 178.5 L 96.9 178.5 L 239.7 35.7 L 204 0 L 0 204 L 204 408 L 239.7 372.3 L 96.9 229.5 L 408 229.5 L 408 178.5 Z"
        fill="#ffffff"/>
</svg>
