<svg
    xmlns="http://www.w3.org/2000/svg"
    viewBox="0 0 40 40"
    id="vector">
    <path
        id="path"
        d="M 0 0 L 40 0 L 40 40 L 0 40 Z"
        fill="#ffffff"
        fill-opacity="0.01"
        fill-rule="evenodd"/>
    <path
        id="path_1"
        d="M 15.815 13 L 23.245 13 L 26.562 16.598 L 27.572 22.143 L 27.572 26.286 L 24.247 31.831 L 14.751 31.831 L 12.259 27.415 L 11.894 23.261 L 12.259 19.463 L 13.377 15.52 Z"
        fill="#d9dfed"/>
    <path
        id="path_2"
        d="M 17 26 L 22.882 26 L 22.882 27.223 L 22.012 30.106 L 21.338 31.292 L 19.37 31.689 L 17.828 30.106 L 17 27.223 Z M 16.926 19 L 22.431 19 L 23.136 20.46 L 23.136 25.85 L 16.144 25.555 L 16 21.271 Z"
        fill="#ffffff"/>
    <path
        id="path_3"
        d="M 18.346 14.225 L 21.2 14 L 23.087 19.017 L 22.446 19.633 L 17 19.633 L 17 17.714 L 18.346 14.225 Z"
        fill="#ffffff"/>
    <path
        id="path_4"
        d="M 20 13.664 L 21.958 14.294 L 23.661 20.188 L 22.706 29.61 L 21.219 31.94 L 24.196 31.94 L 26.641 28.93 L 28.035 22.802 L 27.06 16.515 L 23.66 13 L 20 13.664 Z"
        fill="#97aaf1"/>
    <path
        id="path_5"
        d="M 30 11 M 28 11 C 28 10.47 28.211 9.961 28.586 9.586 C 28.961 9.211 29.47 9 30 9 C 30.53 9 31.039 9.211 31.414 9.586 C 31.789 9.961 32 10.47 32 11 C 32 11.53 31.789 12.039 31.414 12.414 C 31.039 12.789 30.53 13 30 13 C 29.47 13 28.961 12.789 28.586 12.414 C 28.211 12.039 28 11.53 28 11"
        fill="#d9dfed"/>
    <path
        id="path_6"
        d="M 17 9 L 23 9 L 23 13 L 17 13 Z"
        fill="#d9dfed"/>
    <path
        id="path_7"
        d="M 17 9 L 23 9 L 23 11 L 17 11 Z"
        fill="#697bba"/>
    <path
        id="path_8"
        d="M 30.111 8.361 L 16.39 8.361 C 11.65 8.361 7 13.012 7 17.75 C 7 17.941 7.076 18.125 7.211 18.261 C 7.347 18.396 7.531 18.472 7.722 18.472 C 7.913 18.472 8.097 18.396 8.233 18.261 C 8.368 18.125 8.444 17.941 8.444 17.75 C 8.444 14.06 11.976 10.297 15.667 9.849 L 15.667 13.056 C 12.915 14.803 11.333 18.321 11.333 22.827 C 11.333 26.864 12.813 30.577 15.306 32.757 C 15.437 32.874 15.606 32.938 15.782 32.938 L 24.218 32.938 C 24.393 32.938 24.562 32.874 24.694 32.758 C 27.222 30.555 28.667 26.843 28.667 22.806 C 28.667 18.299 27.085 14.782 24.333 13.034 L 24.333 9.806 L 27.627 9.806 C 27.364 10.242 27.224 10.741 27.222 11.25 C 27.222 12.016 27.527 12.751 28.068 13.293 C 28.61 13.834 29.345 14.139 30.111 14.139 C 30.877 14.139 31.612 13.835 32.153 13.293 C 32.695 12.752 33 12.017 33 11.251 C 33 10.485 32.696 9.749 32.154 9.208 C 31.613 8.666 30.878 8.361 30.112 8.361 Z M 22.89 12.694 L 17.11 12.694 L 17.11 9.806 L 22.888 9.806 L 22.888 12.694 Z M 27.223 22.806 C 27.221 23.776 27.122 24.744 26.927 25.694 L 24.168 25.694 C 24.391 23.775 24.391 21.836 24.168 19.917 L 26.963 19.917 C 27.142 20.869 27.229 21.837 27.223 22.806 Z M 22.89 22.806 C 22.89 23.772 22.828 24.736 22.702 25.694 L 17.3 25.694 C 17.05 23.777 17.05 21.834 17.3 19.917 L 22.7 19.917 C 22.826 20.875 22.888 21.84 22.888 22.806 Z M 19.156 31.472 C 18.36 30.137 17.812 28.669 17.538 27.139 L 22.464 27.139 C 22.19 28.669 21.642 30.137 20.846 31.472 L 19.156 31.472 Z M 12.779 22.806 C 12.773 21.836 12.86 20.869 13.039 19.916 L 15.834 19.916 C 15.613 21.836 15.613 23.774 15.834 25.694 L 13.074 25.694 C 12.879 24.744 12.781 23.776 12.779 22.806 Z M 17.539 18.472 C 17.812 16.942 18.36 15.474 19.156 14.139 L 20.846 14.139 C 21.642 15.474 22.19 16.942 22.464 18.472 L 17.538 18.472 Z M 16.583 14.14 L 17.486 14.14 C 16.797 15.507 16.311 16.966 16.041 18.473 L 13.406 18.473 C 13.893 16.686 15.026 15.141 16.584 14.14 Z M 13.456 27.14 L 16.056 27.14 C 16.325 28.647 16.812 30.106 17.5 31.473 L 16.057 31.473 C 14.839 30.271 13.945 28.78 13.457 27.14 Z M 23.942 31.473 L 22.5 31.473 C 23.188 30.106 23.675 28.647 23.944 27.14 L 26.544 27.14 C 26.056 28.78 25.162 30.271 23.944 31.473 Z M 26.592 18.473 L 23.942 18.473 C 23.673 16.967 23.188 15.507 22.5 14.14 L 23.403 14.14 C 24.967 15.139 26.105 16.684 26.595 18.473 Z M 30.11 12.695 C 29.727 12.695 29.36 12.543 29.089 12.272 C 28.818 12.001 28.666 11.634 28.666 11.251 C 28.666 10.868 28.818 10.501 29.089 10.23 C 29.36 9.959 29.727 9.807 30.11 9.807 C 30.493 9.807 30.86 9.959 31.131 10.23 C 31.402 10.501 31.554 10.868 31.554 11.251 C 31.554 11.634 31.402 12.001 31.131 12.272 C 30.86 12.543 30.493 12.695 30.11 12.695 Z"
        fill="#3d3d63"/>
</svg>
