<svg
    xmlns="http://www.w3.org/2000/svg"
    viewBox="0 0 40 40"
    id="vector">
    <path
        id="path"
        d="M 0 0 L 40 0 L 40 40 L 0 40 Z"
        fill="#ffffff"
        fill-opacity="0.01"/>
    <path
        id="path_1"
        d="M 20 21.5 C 19.867 21.5 19.74 21.553 19.646 21.646 C 19.553 21.74 19.5 21.867 19.5 22 L 19.5 34.111 C 19.5 34.509 19.658 34.89 19.939 35.172 C 20.221 35.453 20.602 35.611 21 35.611 L 25.679 35.611 C 25.812 35.611 25.939 35.558 26.033 35.465 C 26.126 35.371 26.179 35.244 26.179 35.111 L 26.179 28.762 C 26.179 28.468 26.296 28.185 26.504 27.977 C 26.712 27.769 26.995 27.652 27.289 27.652 C 27.583 27.652 27.866 27.769 28.074 27.977 C 28.282 28.185 28.399 28.468 28.399 28.762 L 28.399 35.112 C 28.399 35.245 28.452 35.372 28.545 35.466 C 28.639 35.559 28.766 35.612 28.899 35.612 L 33 35.612 C 33.398 35.612 33.779 35.454 34.061 35.173 C 34.342 34.891 34.5 34.51 34.5 34.112 L 34.5 22 C 34.5 21.867 34.447 21.74 34.354 21.646 C 34.26 21.553 34.133 21.5 34 21.5 L 20 21.5 Z"
        fill="#ffc670"
        stroke="#3d3d63"
        stroke-width="1"/>
    <path
        id="path_2"
        d="M 20.5 21.5 L 33.5 21.5 C 33.765 21.5 34.02 21.605 34.207 21.793 C 34.395 21.98 34.5 22.235 34.5 22.5 L 34.5 23.056 C 34.5 23.321 34.395 23.576 34.207 23.763 C 34.02 23.951 33.765 24.056 33.5 24.056 L 20.5 24.056 C 20.235 24.056 19.98 23.951 19.793 23.763 C 19.605 23.576 19.5 23.321 19.5 23.056 L 19.5 22.5 C 19.5 22.235 19.605 21.98 19.793 21.793 C 19.98 21.605 20.235 21.5 20.5 21.5 Z"
        fill="#ffa742"
        stroke="#3d3d63"
        stroke-width="1"/>
    <path
        id="path_3"
        d="M 26.692 15.76 C 25.707 14.33 22.36 9.665 20.662 9.665 L 19.012 9.665 C 18.9 9.665 18.791 9.705 18.706 9.778 L 16.057 8.16 L 16.057 7.28 C 16.507 7.178 16.909 6.927 17.198 6.567 C 17.488 6.208 17.647 5.761 17.65 5.3 C 17.65 4.178 16.723 3.264 15.584 3.264 C 14.444 3.264 13.517 4.178 13.517 5.301 C 13.518 5.383 13.54 5.464 13.582 5.535 C 13.624 5.607 13.684 5.665 13.755 5.706 C 13.827 5.747 13.909 5.768 13.991 5.767 C 14.115 5.768 14.235 5.719 14.324 5.632 C 14.413 5.544 14.463 5.425 14.464 5.301 C 14.464 4.692 14.967 4.197 15.584 4.197 C 16.201 4.197 16.704 4.692 16.704 5.301 C 16.704 5.909 16.201 6.404 15.584 6.404 C 15.502 6.403 15.42 6.424 15.348 6.465 C 15.277 6.506 15.217 6.564 15.175 6.636 C 15.133 6.707 15.111 6.788 15.11 6.87 L 15.11 8.16 L 12.586 9.704 C 12.527 9.679 12.463 9.666 12.399 9.666 L 10.29 9.666 C 8.681 9.666 5.236 14.326 4.218 15.755 C 4.149 15.851 4.12 15.97 4.136 16.088 C 4.153 16.205 4.213 16.311 4.306 16.385 L 8.116 19.445 C 8.319 19.608 8.617 19.578 8.783 19.379 L 9.05 19.055 L 9.05 26.31 C 9.051 26.393 9.073 26.474 9.115 26.545 C 9.156 26.616 9.216 26.675 9.288 26.716 C 9.36 26.757 9.441 26.778 9.524 26.777 L 21.475 26.777 C 21.558 26.778 21.639 26.757 21.711 26.716 C 21.783 26.675 21.843 26.616 21.884 26.545 C 21.926 26.474 21.948 26.393 21.949 26.31 L 21.949 19.166 L 22.124 19.379 C 22.29 19.579 22.588 19.609 22.791 19.446 L 26.601 16.384 C 26.693 16.311 26.753 16.206 26.77 16.09 C 26.787 15.974 26.76 15.856 26.693 15.76 Z M 15.584 8.968 L 18.482 10.739 C 18.375 11.149 18.135 11.512 17.799 11.771 C 17.463 12.029 17.05 12.168 16.626 12.165 L 14.777 12.165 C 14.331 12.167 13.899 12.012 13.556 11.728 C 13.213 11.443 12.981 11.046 12.902 10.607 L 15.584 8.967 Z"
        fill="#3d3d63"/>
    <path
        id="path_4"
        d="M 22.559 18.426 L 21.842 17.559 C 21.779 17.484 21.696 17.43 21.602 17.405 C 21.508 17.379 21.408 17.383 21.316 17.415 C 21.224 17.447 21.145 17.506 21.088 17.585 C 21.032 17.664 21.001 17.758 21.001 17.855 L 21.001 25.842 L 9.997 25.842 L 9.997 17.742 C 9.996 17.645 9.966 17.551 9.909 17.472 C 9.853 17.394 9.774 17.334 9.682 17.303 C 9.59 17.271 9.49 17.267 9.396 17.293 C 9.302 17.319 9.218 17.373 9.156 17.448 L 8.347 18.426 L 5.247 15.936 C 5.867 15.083 6.516 14.252 7.192 13.443 C 7.471 13.109 7.746 12.793 8.011 12.499 C 9.027 11.374 9.897 10.598 10.29 10.598 L 11.942 10.598 C 11.962 10.78 12 10.956 12.054 11.126 C 12.288 11.867 12.827 12.476 13.527 12.814 C 13.905 12.996 14.329 13.099 14.777 13.099 L 16.627 13.099 C 17.076 13.099 17.501 12.996 17.88 12.814 C 18.543 12.498 19.057 11.936 19.314 11.248 C 19.39 11.041 19.444 10.824 19.47 10.598 L 20.663 10.598 C 21.049 10.598 21.816 11.253 22.717 12.23 C 23.092 12.637 23.489 13.099 23.892 13.594 C 24.491 14.328 25.1 15.133 25.663 15.931 L 22.559 18.426 Z"
        fill="#f6716f"/>
    <path
        id="path_5"
        d="M 17.94 24 L 21 18 L 21 26 L 10 26 L 10 24 L 17.94 24 Z"
        fill="#e1423f"/>
    <path
        id="path_6"
        d="M 24.5 28 L 24.5 28 C 24.633 28 24.76 28.053 24.854 28.146 C 24.947 28.24 25 28.367 25 28.5 L 25 33.5 C 25 33.633 24.947 33.76 24.854 33.854 C 24.76 33.947 24.633 34 24.5 34 L 24.5 34 C 24.367 34 24.24 33.947 24.146 33.854 C 24.053 33.76 24 33.633 24 33.5 L 24 28.5 C 24 28.367 24.053 28.24 24.146 28.146 C 24.24 28.053 24.367 28 24.5 28 Z"
        fill="#ffa742"/>
    <path
        id="path_7"
        d="M 32 25 L 32 25 C 32.265 25 32.52 25.105 32.707 25.293 C 32.895 25.48 33 25.735 33 26 L 33 33 C 33 33.265 32.895 33.52 32.707 33.707 C 32.52 33.895 32.265 34 32 34 L 32 34 C 31.735 34 31.48 33.895 31.293 33.707 C 31.105 33.52 31 33.265 31 33 L 31 26 C 31 25.735 31.105 25.48 31.293 25.293 C 31.48 25.105 31.735 25 32 25 Z"
        fill="#ffa742"/>
    <path
        id="path_8"
        d="M 8.748 31.523 C 8.748 32.736 7.756 33.723 6.538 33.723 L 6.21 33.723 C 5.626 33.724 5.064 33.492 4.65 33.08 C 4.236 32.668 4.002 32.107 4 31.523 L 4 30.508 C 4.001 30.373 4.055 30.244 4.15 30.149 C 4.246 30.053 4.375 30 4.51 30 L 8.238 30 C 8.373 30 8.502 30.053 8.598 30.149 C 8.693 30.244 8.747 30.373 8.748 30.508 L 8.748 31.523 Z M 16.748 31.523 C 16.748 32.736 15.756 33.723 14.538 33.723 L 14.21 33.723 C 13.626 33.724 13.064 33.492 12.65 33.08 C 12.236 32.668 12.002 32.107 12 31.523 L 12 30.508 C 12.001 30.373 12.055 30.244 12.15 30.149 C 12.246 30.053 12.375 30 12.51 30 L 16.238 30 C 16.373 30 16.502 30.053 16.598 30.149 C 16.693 30.244 16.747 30.373 16.748 30.508 L 16.748 31.523 Z"
        fill="#c69a6a"
        stroke="#3d3d63"
        stroke-width="1"/>
    <path
        id="path_9"
        d="M 9.5 30.5 L 11.5 30.5 L 11.5 31.5 L 9.5 31.5 Z"
        fill="#00000000"
        stroke="#3d3d63"
        stroke-width="1"/>
</svg>
