<svg
    xmlns="http://www.w3.org/2000/svg"
    viewBox="0 0 40 40"
    id="vector">
    <path
        id="path"
        d="M 0 0 L 40 0 L 40 40 L 0 40 Z"
        fill="#ffffff"
        fill-opacity="0.01"
        fill-rule="evenodd"/>
    <path
        id="path_1"
        d="M 20 4 C 17.04 4 14.138 4.822 11.617 6.373 C 9.096 7.924 7.054 10.145 5.72 12.787 C 7.701 9.522 10.81 7.092 14.457 5.959 C 18.104 4.826 22.042 5.067 25.524 6.635 C 29.006 8.203 31.797 10.994 33.365 14.476 C 34.933 17.958 35.174 21.896 34.041 25.543 C 32.908 29.19 30.478 32.299 27.213 34.28 C 30.424 32.657 32.995 29.998 34.51 26.735 C 36.024 23.472 36.394 19.792 35.561 16.292 C 34.727 12.793 32.737 9.675 29.914 7.445 C 27.091 5.215 23.597 4.001 20 4 Z"
        fill="#d9dfed"/>
    <path
        id="path_2"
        d="M 28.033 30.793 C 24.248 30.798 20.548 29.66 17.421 27.529 C 14.293 25.398 11.881 22.371 10.501 18.846 C 9.121 15.322 8.837 11.461 9.687 7.773 C 6.95 10.066 5.058 13.211 4.314 16.704 C 3.571 20.196 4.017 23.839 5.582 27.049 C 7.147 30.258 9.742 32.853 12.951 34.418 C 16.161 35.983 19.804 36.429 23.296 35.686 C 26.789 34.942 29.934 33.05 32.227 30.313 C 30.851 30.629 29.445 30.79 28.033 30.793 Z"
        fill="#97aaf1"/>
    <path
        id="path_3"
        d="M 20 20 M 7.553 20 C 7.545 17.366 8.372 14.797 9.916 12.664 C 11.46 10.53 13.642 8.941 16.146 8.125 C 18.65 7.31 21.35 7.31 23.854 8.125 C 26.358 8.941 28.54 10.53 30.084 12.664 C 31.628 14.797 32.455 17.366 32.447 20 C 32.447 23.3 31.135 26.468 28.801 28.801 C 26.468 31.135 23.3 32.447 20 32.447 C 16.7 32.447 13.532 31.135 11.199 28.801 C 8.865 26.468 7.553 23.3 7.553 20"
        fill="#97aaf1"/>
    <path
        id="path_4"
        d="M 25.527 12.667 C 24.78 14.213 22.96 13.547 21.76 13.273 C 20.56 13 18.84 12.787 18.787 11.113 C 18.733 9.44 21.067 8.893 22.587 9.18 C 24.107 9.467 26.28 11.133 25.527 12.667 Z"
        fill="#ffffff"
        fill-opacity="0.5"
        stroke-opacity="0.5"/>
    <path
        id="path_5"
        d="M 24.213 31.713 C 21.469 32.699 18.464 32.69 15.727 31.688 C 12.989 30.686 10.688 28.753 9.229 26.229 C 7.77 23.705 7.243 20.747 7.74 17.874 C 8.238 15.001 9.73 12.393 11.953 10.507 C 10.873 13.307 11.82 18.267 14.62 23.113 C 17.42 27.96 21.247 31.26 24.213 31.713 Z"
        fill="#697bba"/>
    <path
        id="path_6"
        d="M 14.615 23.11 C 15.928 25.393 17.571 27.412 19.306 28.873 C 21.041 30.335 22.78 31.167 24.271 31.247 C 25.762 31.328 26.931 30.653 27.607 29.321 C 28.283 27.99 28.432 26.068 28.034 23.834 C 27.635 21.601 26.708 19.169 25.388 16.89 C 24.075 14.608 22.432 12.589 20.697 11.127 C 18.962 9.665 17.223 8.834 15.732 8.754 C 14.24 8.673 13.072 9.348 12.396 10.679 C 11.72 12.011 11.571 13.933 11.969 16.166 C 12.368 18.4 13.294 20.832 14.615 23.11 Z"
        fill="#97aaf1"/>
    <path
        id="path_7"
        d="M 20 3.333 C 10.795 3.333 3.333 10.795 3.333 20 C 3.333 29.205 10.795 36.667 20 36.667 C 29.205 36.667 36.667 29.205 36.667 20 C 36.667 15.581 34.91 11.339 31.785 8.215 C 28.661 5.09 24.419 3.333 20 3.333 Z M 20 35.333 C 11.532 35.333 4.667 28.468 4.667 20 C 4.667 11.532 11.532 4.667 20 4.667 C 28.468 4.667 35.333 11.532 35.333 20 C 35.333 24.065 33.716 27.968 30.842 30.842 C 27.968 33.716 24.065 35.333 20 35.333 Z"
        fill="#3d3d63"/>
    <path
        id="path_8"
        d="M 30.513 14.667 C 30.569 14.778 30.655 14.871 30.761 14.935 C 30.867 15 30.989 15.034 31.113 15.033 C 31.217 15.035 31.32 15.012 31.413 14.967 C 31.518 14.914 31.607 14.834 31.672 14.736 C 31.736 14.637 31.773 14.524 31.779 14.406 C 31.786 14.289 31.761 14.172 31.707 14.067 C 31.483 13.629 31.236 13.204 30.967 12.793 C 30.89 12.675 30.777 12.584 30.645 12.534 C 30.513 12.484 30.368 12.478 30.232 12.515 C 30.096 12.552 29.975 12.632 29.887 12.742 C 29.799 12.853 29.749 12.988 29.742 13.129 C 29.736 13.27 29.775 13.409 29.853 13.527 C 30.096 13.893 30.316 14.274 30.513 14.667 Z M 32.453 20.513 C 32.277 20.497 32.102 20.551 31.966 20.663 C 31.83 20.775 31.744 20.937 31.727 21.113 C 31.688 21.562 31.621 22.007 31.527 22.447 C 31.492 22.62 31.527 22.8 31.624 22.948 C 31.722 23.095 31.874 23.198 32.047 23.233 L 32.18 23.233 C 32.336 23.236 32.488 23.185 32.61 23.087 C 32.732 22.99 32.816 22.853 32.847 22.7 C 32.947 22.218 33.021 21.73 33.067 21.24 C 33.078 21.122 33.057 21.003 33.007 20.896 C 32.957 20.789 32.879 20.697 32.782 20.629 C 32.685 20.562 32.571 20.522 32.453 20.513 Z M 28.167 11.513 C 28.29 11.633 28.455 11.699 28.627 11.7 C 28.717 11.7 28.806 11.681 28.888 11.645 C 28.971 11.61 29.045 11.558 29.107 11.493 C 29.231 11.368 29.301 11.199 29.301 11.023 C 29.301 10.847 29.231 10.678 29.107 10.553 C 28.758 10.21 28.389 9.89 28 9.593 C 27.858 9.482 27.677 9.433 27.498 9.455 C 27.319 9.477 27.156 9.569 27.045 9.711 C 26.934 9.853 26.883 10.034 26.905 10.213 C 26.926 10.392 27.018 10.555 27.16 10.667 C 27.507 10.92 27.847 11.207 28.167 11.513 Z M 31.433 17.167 C 31.542 17.595 31.624 18.029 31.68 18.467 C 31.724 18.801 32.01 19.05 32.347 19.047 L 32.433 19.047 C 32.608 19.024 32.767 18.932 32.874 18.792 C 32.982 18.652 33.03 18.475 33.007 18.3 C 32.945 17.813 32.856 17.33 32.74 16.853 C 32.697 16.682 32.588 16.534 32.437 16.443 C 32.286 16.352 32.104 16.325 31.933 16.367 C 31.819 16.393 31.714 16.449 31.628 16.529 C 31.542 16.609 31.479 16.71 31.445 16.822 C 31.411 16.934 31.407 17.053 31.433 17.167 Z M 23.66 8.807 C 24.081 8.94 24.493 9.1 24.893 9.287 C 25.053 9.353 25.232 9.354 25.392 9.291 C 25.553 9.227 25.683 9.104 25.754 8.947 C 25.826 8.79 25.834 8.611 25.776 8.448 C 25.719 8.286 25.6 8.151 25.446 8.074 C 25 7.867 24.542 7.688 24.073 7.54 C 23.937 7.489 23.789 7.483 23.65 7.524 C 23.51 7.565 23.388 7.65 23.302 7.767 C 23.216 7.883 23.169 8.025 23.171 8.17 C 23.172 8.315 23.22 8.455 23.309 8.57 C 23.397 8.685 23.52 8.768 23.66 8.807 Z M 31.007 25.147 C 30.882 25.147 30.76 25.182 30.654 25.248 C 30.547 25.313 30.462 25.408 30.407 25.52 C 29.953 26.376 29.393 27.171 28.74 27.887 C 28.892 27.061 28.937 26.218 28.873 25.38 C 28.825 24.588 28.711 23.801 28.533 23.027 L 30.533 21.887 C 30.682 21.796 30.79 21.651 30.834 21.482 C 30.877 21.313 30.853 21.133 30.766 20.982 C 30.679 20.831 30.536 20.719 30.368 20.672 C 30.2 20.624 30.02 20.644 29.867 20.727 L 28.207 21.687 C 27.736 20.109 27.099 18.584 26.307 17.14 L 29.133 15.507 C 29.277 15.414 29.38 15.27 29.42 15.103 C 29.46 14.937 29.435 14.761 29.349 14.613 C 29.264 14.465 29.124 14.355 28.96 14.307 C 28.796 14.258 28.619 14.275 28.467 14.353 L 25.62 16 C 24.776 14.589 23.786 13.271 22.667 12.067 L 24.313 11.113 C 24.455 11.019 24.555 10.875 24.594 10.71 C 24.633 10.544 24.607 10.37 24.522 10.223 C 24.437 10.076 24.3 9.967 24.137 9.918 C 23.974 9.869 23.799 9.884 23.647 9.96 L 21.647 11.093 C 21.062 10.557 20.438 10.064 19.78 9.62 C 19.076 9.152 18.317 8.774 17.52 8.493 C 18.335 8.314 19.166 8.222 20 8.22 L 20.44 8.22 C 20.612 8.213 20.775 8.14 20.895 8.016 C 21.014 7.892 21.081 7.726 21.081 7.553 C 21.081 7.381 21.014 7.215 20.895 7.091 C 20.775 6.967 20.612 6.894 20.44 6.887 L 19.953 6.887 C 16.845 6.898 13.841 8.013 11.479 10.033 C 9.117 12.052 7.548 14.847 7.053 17.915 C 6.559 20.983 7.171 24.129 8.78 26.788 C 10.389 29.446 12.891 31.449 15.838 32.435 C 18.785 33.421 21.989 33.329 24.874 32.173 C 27.759 31.018 30.141 28.874 31.593 26.127 C 31.665 25.991 31.688 25.834 31.658 25.683 C 31.628 25.533 31.547 25.397 31.428 25.299 C 31.309 25.201 31.16 25.147 31.006 25.147 Z M 27.007 22.373 L 23.333 24.48 L 20.893 20.247 L 25.113 17.807 C 25.912 19.254 26.547 20.785 27.007 22.373 Z M 19.753 20.913 L 22.2 25.147 L 18.553 27.247 C 17.406 26.057 16.393 24.745 15.533 23.333 L 19.753 20.913 Z M 14.867 22.193 C 14.078 20.745 13.452 19.213 13 17.627 L 16.667 15.52 L 19.107 19.753 L 14.867 22.193 Z M 24.467 16.667 L 20.247 19.1 L 17.8 14.853 L 21.447 12.747 C 22.596 13.937 23.609 15.252 24.467 16.667 Z M 15.513 9.453 C 16.787 9.533 18.011 9.978 19.04 10.733 C 19.526 11.057 19.991 11.411 20.433 11.793 L 17.133 13.7 L 14.733 9.547 C 14.989 9.484 15.251 9.453 15.513 9.453 Z M 13.58 10.22 L 16 14.367 L 12.667 16.267 C 12.18 13.593 12.453 11.333 13.58 10.22 Z M 11.253 12.14 C 11 13.751 11.068 15.396 11.453 16.98 L 8.287 18.807 C 8.538 16.325 9.578 13.988 11.253 12.14 Z M 8.24 20.373 L 11.8 18.32 C 12.279 19.895 12.92 21.417 13.713 22.86 L 9.493 25.293 C 8.721 23.764 8.294 22.085 8.24 20.373 Z M 10.16 26.453 L 14.38 24 C 15.223 25.413 16.213 26.734 17.333 27.94 L 13.8 30 C 12.345 29.094 11.104 27.884 10.16 26.453 Z M 20 31.787 C 18.337 31.785 16.694 31.428 15.18 30.74 L 18.347 28.92 C 19.531 30.052 20.93 30.936 22.46 31.52 C 21.652 31.694 20.827 31.781 20 31.78 L 20 31.787 Z M 19.58 28.207 L 22.867 26.307 L 25.26 30.453 C 23.727 30.86 21.64 30 19.58 28.2 L 19.58 28.207 Z M 26.413 29.787 L 24 25.633 L 27.333 23.727 C 27.446 24.299 27.522 24.878 27.56 25.46 C 27.66 27.407 27.253 28.927 26.413 29.78 L 26.413 29.787 Z"
        fill="#3d3d63"/>
</svg>
