<svg
    xmlns="http://www.w3.org/2000/svg"
    viewBox="0 0 40 40"
    id="vector">
    <path
        id="path"
        d="M 0 0 L 40 0 L 40 40 L 0 40 Z"
        fill="#ffffff"
        fill-opacity="0.01"
        fill-rule="evenodd"/>
    <path
        id="path_1"
        d="M 16.167 11.333 L 17.6 16.213 C 15.92 16.858 14.556 18.134 13.8 19.767 C 13.044 21.401 12.954 23.266 13.55 24.964 C 14.146 26.663 15.382 28.063 16.992 28.866 C 18.603 29.669 20.465 29.813 22.18 29.267 L 23.6 34.147 C 17.355 36.026 10.753 32.573 8.733 26.373 C 6.713 20.173 10.013 13.494 16.167 11.333 Z"
        fill="#96ddff"/>
    <path
        id="path_2"
        d="M 22.56 30.573 C 20.456 31.068 18.256 30.986 16.194 30.334 C 14.133 29.683 12.285 28.486 10.848 26.871 C 9.41 25.257 8.436 23.283 8.027 21.16 C 7.674 23.845 8.241 26.573 9.634 28.896 C 11.027 31.219 13.166 33.003 15.701 33.956 C 18.237 34.909 21.022 34.977 23.6 34.147 L 22.56 30.573 Z"
        fill="#69baf9"/>
    <path
        id="path_3"
        d="M 24.624 25.144 L 26.874 33.541 L 23.674 34.398 L 21.424 26.002 Z"
        fill="#d8e3f0"/>
    <path
        id="path_4"
        d="M 20.298 8.432 L 23.225 18.64 L 18.637 19.956 L 15.71 9.747 Z"
        fill="#fcfeff"/>
    <path
        id="path_5"
        d="M 15.708 9.741 L 17.791 9.144 L 20.719 19.353 L 18.635 19.95 Z M 20.465 22.226 L 19.727 19.65 L 22.137 18.959 L 22.875 21.535 Z M 13.492 5.796 C 13.468 5.71 13.466 5.62 13.488 5.534 C 13.509 5.447 13.553 5.368 13.615 5.304 C 13.677 5.24 13.754 5.193 13.84 5.169 L 19.46 3.558 C 19.589 3.521 19.728 3.537 19.845 3.602 C 19.963 3.667 20.05 3.776 20.087 3.905 C 20.173 4.205 20.179 4.523 20.103 4.826 C 20.028 5.129 19.874 5.407 19.657 5.632 C 19.44 5.857 19.167 6.021 18.867 6.107 L 15.694 7.017 C 15.394 7.103 15.076 7.109 14.772 7.033 C 14.469 6.957 14.191 6.803 13.966 6.586 C 13.742 6.369 13.578 6.096 13.492 5.796 Z"
        fill="#d8e3f0"/>
    <path
        id="path_6"
        d="M 15.693 7.016 L 18.865 6.106 L 19.589 8.631 L 16.417 9.541 Z"
        fill="#d8e3f0"/>
    <path
        id="path_7"
        d="M 30.833 36.06 L 8.993 36.06 L 8.993 35.173 C 8.993 34.584 9.227 34.019 9.643 33.603 C 10.059 33.187 10.624 32.953 11.213 32.953 L 28.613 32.953 C 29.201 32.953 29.765 33.186 30.181 33.601 C 30.597 34.016 30.831 34.579 30.833 35.167 L 30.833 36.06 Z"
        fill="#69baf9"/>
    <path
        id="path_8"
        d="M 29.043 25.483 L 19.538 28.03 L 18.963 25.886 L 28.468 23.339 Z"
        fill="#fcfeff"/>
    <path
        id="path_9"
        d="M 13 23.027 M 10.347 23.027 C 10.347 22.467 10.524 21.921 10.854 21.468 C 11.183 21.014 11.647 20.677 12.18 20.504 C 12.713 20.331 13.287 20.331 13.82 20.504 C 14.353 20.677 14.817 21.014 15.146 21.468 C 15.476 21.921 15.653 22.467 15.653 23.027 C 15.653 23.73 15.373 24.406 14.876 24.903 C 14.379 25.4 13.703 25.68 13 25.68 C 12.297 25.68 11.621 25.4 11.124 24.903 C 10.627 24.406 10.347 23.73 10.347 23.027"
        fill="#fcfeff"/>
    <path
        id="path_10"
        d="M 28.08 6.013 L 33.42 6.013 C 33.95 6.013 34.459 6.224 34.834 6.599 C 35.209 6.974 35.42 7.483 35.42 8.013 L 35.42 15.433 C 35.42 15.963 35.209 16.472 34.834 16.847 C 34.459 17.222 33.95 17.433 33.42 17.433 L 28.08 17.433 C 27.55 17.433 27.041 17.222 26.666 16.847 C 26.291 16.472 26.08 15.963 26.08 15.433 L 26.08 8.013 C 26.08 7.483 26.291 6.974 26.666 6.599 C 27.041 6.224 27.55 6.013 28.08 6.013 Z"
        fill="#ffe3ba"/>
    <path
        id="path_11"
        d="M 34.08 5.333 L 27.413 5.333 C 26.883 5.333 26.374 5.544 25.999 5.919 C 25.624 6.294 25.413 6.803 25.413 7.333 L 25.413 16.107 C 25.413 16.637 25.624 17.146 25.999 17.521 C 26.374 17.896 26.883 18.107 27.413 18.107 L 34.08 18.107 C 34.61 18.107 35.119 17.896 35.494 17.521 C 35.869 17.146 36.08 16.637 36.08 16.107 L 36.08 7.333 C 36.08 6.803 35.869 6.294 35.494 5.919 C 35.119 5.544 34.61 5.333 34.08 5.333 Z M 34.747 16.093 C 34.747 16.27 34.677 16.44 34.552 16.565 C 34.427 16.69 34.257 16.76 34.08 16.76 L 27.413 16.76 C 27.236 16.76 27.067 16.689 26.942 16.564 C 26.817 16.439 26.747 16.27 26.747 16.093 L 26.747 7.333 C 26.747 6.965 27.045 6.667 27.413 6.667 L 34.08 6.667 C 34.448 6.667 34.747 6.965 34.747 7.333 L 34.747 16.093 Z"
        fill="#2c3f67"/>
    <path
        id="path_12"
        d="M 32.767 8.507 L 30.473 8.507 C 30.301 8.514 30.138 8.587 30.018 8.711 C 29.899 8.835 29.832 9.001 29.832 9.174 C 29.832 9.346 29.899 9.512 30.018 9.636 C 30.138 9.76 30.301 9.833 30.473 9.84 L 32.767 9.84 C 32.939 9.833 33.102 9.76 33.222 9.636 C 33.341 9.512 33.408 9.346 33.408 9.174 C 33.408 9.001 33.341 8.835 33.222 8.711 C 33.102 8.587 32.939 8.514 32.767 8.507 Z M 32.767 11.06 L 30.473 11.06 C 30.301 11.067 30.138 11.14 30.018 11.264 C 29.899 11.388 29.832 11.554 29.832 11.726 C 29.832 11.899 29.899 12.065 30.018 12.189 C 30.138 12.313 30.301 12.386 30.473 12.393 L 32.767 12.393 C 32.911 12.399 33.053 12.357 33.172 12.275 C 33.291 12.193 33.38 12.074 33.426 11.938 C 33.471 11.801 33.471 11.652 33.426 11.515 C 33.38 11.379 33.291 11.26 33.172 11.178 C 33.053 11.096 32.911 11.054 32.767 11.06 Z M 32.767 13.613 L 30.473 13.613 C 30.296 13.613 30.126 13.683 30.001 13.808 C 29.876 13.933 29.806 14.103 29.806 14.28 C 29.806 14.457 29.876 14.627 30.001 14.752 C 30.126 14.877 30.296 14.947 30.473 14.947 L 32.767 14.947 C 32.944 14.947 33.114 14.877 33.239 14.752 C 33.364 14.627 33.434 14.457 33.434 14.28 C 33.434 14.103 33.364 13.933 33.239 13.808 C 33.114 13.683 32.944 13.613 32.767 13.613 Z M 28.26 8.7 L 28.173 8.8 L 28.113 8.913 L 28.073 9.04 C 28.07 9.084 28.07 9.129 28.073 9.173 C 28.075 9.349 28.147 9.517 28.273 9.64 C 28.396 9.766 28.564 9.837 28.74 9.84 C 28.828 9.84 28.915 9.822 28.997 9.787 C 29.078 9.753 29.151 9.703 29.213 9.64 C 29.337 9.515 29.407 9.346 29.407 9.17 C 29.407 8.994 29.337 8.825 29.213 8.7 C 29.13 8.615 29.026 8.554 28.911 8.523 C 28.797 8.492 28.676 8.492 28.562 8.523 C 28.447 8.554 28.343 8.615 28.26 8.7 Z M 29.2 11.253 C 29.091 11.145 28.947 11.078 28.794 11.063 C 28.641 11.049 28.488 11.087 28.36 11.173 L 28.26 11.253 C 28.153 11.36 28.085 11.5 28.067 11.65 C 28.05 11.8 28.084 11.952 28.165 12.08 C 28.245 12.209 28.367 12.306 28.509 12.356 C 28.652 12.406 28.808 12.406 28.951 12.356 C 29.093 12.306 29.215 12.209 29.295 12.08 C 29.376 11.952 29.41 11.8 29.393 11.65 C 29.375 11.5 29.307 11.36 29.2 11.253 Z M 28.26 13.813 C 28.134 13.936 28.062 14.104 28.06 14.28 C 28.06 14.368 28.078 14.455 28.113 14.537 C 28.147 14.618 28.197 14.691 28.26 14.753 C 28.364 14.857 28.498 14.923 28.644 14.943 C 28.789 14.962 28.936 14.933 29.063 14.861 C 29.191 14.788 29.29 14.675 29.347 14.54 C 29.38 14.457 29.395 14.369 29.393 14.28 C 29.392 14.105 29.323 13.937 29.2 13.813 C 29.075 13.689 28.906 13.619 28.73 13.619 C 28.554 13.619 28.385 13.689 28.26 13.813 Z M 33.253 35.393 L 31.507 35.393 L 31.507 35.173 C 31.505 34.406 31.199 33.671 30.657 33.129 C 30.115 32.587 29.38 32.282 28.613 32.28 L 27.227 32.28 L 25.82 27.033 L 29.213 26.127 C 29.376 26.077 29.513 25.968 29.598 25.82 C 29.682 25.673 29.707 25.498 29.667 25.333 L 29.093 23.187 C 29.062 23.074 29.002 22.971 28.919 22.889 C 28.835 22.806 28.732 22.748 28.618 22.718 C 28.505 22.688 28.386 22.689 28.273 22.72 L 18.787 25.24 C 18.62 25.29 18.479 25.402 18.395 25.554 C 18.31 25.706 18.288 25.885 18.333 26.053 L 18.913 28.2 C 18.959 28.37 19.07 28.516 19.222 28.605 C 19.375 28.693 19.556 28.718 19.727 28.673 L 21.347 28.24 L 21.493 28.767 C 20.191 29.126 18.805 29.043 17.555 28.532 C 16.304 28.021 15.258 27.109 14.58 25.94 C 15.3 25.537 15.844 24.88 16.108 24.099 C 16.372 23.317 16.337 22.465 16.009 21.708 C 15.681 20.951 15.084 20.342 14.333 20 C 14.939 18.772 15.933 17.776 17.16 17.167 L 18.04 20.227 C 18.09 20.397 18.205 20.54 18.36 20.625 C 18.515 20.71 18.697 20.73 18.867 20.68 L 19.313 20.553 L 19.867 22.493 C 19.916 22.663 20.031 22.806 20.186 22.891 C 20.341 22.976 20.523 22.996 20.693 22.947 L 23.1 22.28 C 23.213 22.248 23.316 22.187 23.398 22.103 C 23.48 22.018 23.538 21.914 23.566 21.8 C 23.595 21.686 23.593 21.566 23.56 21.453 L 23 19.467 L 23.447 19.34 C 23.617 19.29 23.76 19.175 23.845 19.02 C 23.93 18.865 23.95 18.683 23.9 18.513 L 20.947 8.307 C 20.899 8.138 20.785 7.994 20.632 7.908 C 20.478 7.822 20.297 7.8 20.127 7.847 L 20.06 7.847 L 19.673 6.513 C 20.122 6.234 20.468 5.816 20.659 5.323 C 20.85 4.831 20.876 4.289 20.733 3.78 C 20.677 3.583 20.569 3.404 20.421 3.261 C 20.274 3.119 20.091 3.018 19.892 2.968 C 19.693 2.919 19.484 2.923 19.287 2.98 L 13.667 4.587 C 13.045 4.767 12.687 5.417 12.867 6.04 C 13.016 6.548 13.326 6.995 13.75 7.313 C 14.174 7.63 14.69 7.801 15.22 7.8 L 15.607 9.133 L 15.533 9.133 C 15.415 9.165 15.307 9.23 15.223 9.319 C 15.139 9.408 15.081 9.519 15.056 9.639 C 15.03 9.76 15.039 9.884 15.08 10 L 15.347 10.94 C 12.632 11.999 10.364 13.963 8.928 16.498 C 7.492 19.034 6.973 21.989 7.461 24.862 C 7.949 27.735 9.414 30.354 11.607 32.273 L 11.22 32.273 C 10.453 32.276 9.719 32.584 9.178 33.127 C 8.637 33.67 8.333 34.406 8.333 35.173 L 8.333 35.393 L 6.587 35.393 C 6.411 35.394 6.241 35.464 6.117 35.589 C 5.992 35.714 5.922 35.884 5.922 36.06 C 5.922 36.236 5.992 36.406 6.117 36.531 C 6.241 36.656 6.411 36.726 6.587 36.727 L 33.253 36.727 C 33.429 36.726 33.599 36.656 33.723 36.531 C 33.848 36.406 33.918 36.236 33.918 36.06 C 33.918 35.884 33.848 35.714 33.723 35.589 C 33.599 35.464 33.429 35.394 33.253 35.393 Z M 25.847 32.28 L 23.793 32.28 L 22.62 27.893 L 24.533 27.38 L 25.847 32.28 Z M 20.007 27.213 L 19.773 26.353 L 27.993 24.153 L 28.227 25.013 L 20.007 27.213 Z M 15 23.027 C 15 23.557 14.789 24.066 14.414 24.441 C 14.039 24.816 13.53 25.027 13 25.027 C 12.47 25.027 11.961 24.816 11.586 24.441 C 11.211 24.066 11 23.557 11 23.027 C 11 22.497 11.211 21.988 11.586 21.613 C 11.961 21.238 12.47 21.027 13 21.027 C 13.53 21.027 14.039 21.238 14.414 21.613 C 14.789 21.988 15 22.497 15 23.027 Z M 20.953 21.453 L 20.58 20.16 L 21.667 19.833 L 22.04 21.133 L 20.953 21.453 Z M 22.433 18.24 L 19.1 19.187 L 18.793 18.113 L 22.093 17.167 L 22.433 18.24 Z M 19.853 9.333 L 21.733 15.907 L 18.4 16.853 L 16.52 10.28 L 19.853 9.333 Z M 16.52 7.547 L 18.413 7.007 L 18.767 8.253 L 16.88 8.793 L 16.52 7.547 Z M 15.52 6.433 C 15.261 6.508 14.984 6.488 14.739 6.375 C 14.494 6.263 14.298 6.065 14.187 5.82 L 19.473 4.307 C 19.509 4.571 19.448 4.839 19.303 5.061 C 19.157 5.284 18.936 5.447 18.68 5.52 L 15.52 6.433 Z M 8.587 22.727 C 8.588 20.462 9.267 18.249 10.537 16.374 C 11.807 14.5 13.61 13.048 15.713 12.207 L 16.76 15.84 C 15.061 16.62 13.707 17.999 12.96 19.713 C 12.078 19.721 11.234 20.079 10.616 20.707 C 9.997 21.336 9.652 22.184 9.657 23.066 C 9.662 23.948 10.017 24.793 10.644 25.414 C 11.27 26.035 12.118 26.383 13 26.38 L 13.233 26.38 C 13.882 27.585 14.844 28.592 16.017 29.296 C 17.19 30 18.532 30.375 19.9 30.38 C 20.542 30.378 21.18 30.293 21.8 30.127 L 22.393 32.34 L 13.827 32.34 C 12.208 31.316 10.876 29.896 9.959 28.214 C 9.042 26.532 8.57 24.643 8.587 22.727 Z M 30.173 35.393 L 9.667 35.393 L 9.667 35.173 C 9.667 34.312 10.365 33.613 11.227 33.613 L 28.613 33.613 C 29.027 33.613 29.424 33.777 29.716 34.07 C 30.009 34.362 30.173 34.759 30.173 35.173 L 30.173 35.393 Z"
        fill="#2c3f67"/>
    <path
        id="path_13"
        d="M 12.113 23.027 C 12.113 23.262 12.207 23.488 12.373 23.654 C 12.539 23.82 12.765 23.914 13 23.914 C 13.235 23.914 13.461 23.82 13.627 23.654 C 13.793 23.488 13.887 23.262 13.887 23.027 C 13.887 22.792 13.793 22.566 13.627 22.4 C 13.461 22.234 13.235 22.14 13 22.14 C 12.844 22.139 12.69 22.179 12.555 22.257 C 12.42 22.334 12.307 22.447 12.23 22.582 C 12.152 22.717 12.112 22.871 12.113 23.027 Z"
        fill="#3d3d63"/>
</svg>
