<svg
    xmlns="http://www.w3.org/2000/svg"
    viewBox="0 0 40 40"
    id="vector">
    <path
        id="path"
        d="M 19.598 14.774 C 19.565 14.657 19.5 14.552 19.41 14.471 C 19.32 14.39 19.209 14.335 19.09 14.313 L 7.872 11.927 C 7.729 11.895 7.581 11.893 7.436 11.92 C 7.292 11.947 7.155 12.003 7.033 12.084 C 6.783 12.243 6.607 12.496 6.545 12.786 L 5.746 16.562 C 5.712 16.693 5.72 16.831 5.768 16.957 C 5.816 17.084 5.903 17.192 6.015 17.267 C 6.128 17.341 6.261 17.379 6.396 17.375 L 17.218 17.375 C 17.395 17.374 17.566 17.304 17.693 17.18 L 19.428 15.438 C 19.512 15.352 19.573 15.246 19.602 15.129 C 19.632 15.012 19.631 14.89 19.598 14.774 Z"
        fill="#97aaf1"/>
    <path
        id="path_1"
        d="M 0 0 L 40 0 L 40 40 L 0 40 Z"
        fill="#ffffff"
        fill-opacity="0.01"
        fill-rule="evenodd"/>
    <path
        id="path_2"
        d="M 31.492 16.035 L 9.595 16.035 C 9.423 16.035 9.257 16.104 9.135 16.225 C 9.014 16.347 8.945 16.513 8.945 16.685 L 8.945 30.985 C 8.945 31.345 9.236 31.635 9.595 31.635 L 31.493 31.635 C 31.907 31.633 32.304 31.468 32.596 31.174 C 32.889 30.881 33.053 30.483 33.053 30.069 L 33.053 17.596 C 33.053 17.182 32.889 16.785 32.596 16.493 C 32.304 16.2 31.907 16.036 31.493 16.036 Z"
        fill="#d9dfed"/>
    <path
        id="path_3"
        d="M 33.053 30.108 L 33.053 17.596 C 33.05 17.309 32.969 17.028 32.819 16.783 C 31.252 19.688 29.139 22.893 26.669 24.843 C 21.268 29.087 9.594 27.358 9.594 27.358 L 8.944 28.268 L 8.944 30.998 C 8.944 31.358 9.235 31.648 9.594 31.648 L 31.492 31.648 C 31.902 31.646 32.295 31.484 32.586 31.196 C 32.878 30.909 33.045 30.518 33.052 30.108 Z"
        fill="#97aaf1"/>
    <path
        id="path_4"
        d="M 3.25 21.47 L 5.037 23.855 L 3.25 26.234 L 5.037 28.619 L 3.25 31 L 9.594 31 L 9.594 16.704 L 3.25 16.704 L 5.037 19.083 Z"
        fill="#97aaf1"/>
    <path
        id="path_5"
        d="M 9.594 30.998 L 9.594 27.528 C 7.472 27.453 5.398 26.876 3.543 25.844 L 3.25 26.234 L 5.037 28.6 L 3.25 30.998 L 9.594 30.998 Z"
        fill="#697bba"/>
    <path
        id="path_6"
        d="M 25.747 23.686 L 20.059 17.998 L 21.008 17.049 L 25.116 18.629 L 26.696 22.737 Z"
        fill="#ffffff"/>
    <path
        id="path_7"
        d="M 22.75 21.613 C 22.629 21.65 22.498 21.642 22.383 21.59 C 22.268 21.538 22.175 21.445 22.123 21.33 C 22.071 21.215 22.063 21.084 22.1 20.963 C 22.444 19.589 23.154 18.333 24.154 17.329 L 32.428 9.1 C 32.794 8.728 33.28 8.497 33.8 8.45 C 34.061 8.427 34.323 8.482 34.554 8.606 C 34.784 8.731 34.973 8.921 35.097 9.152 C 35.221 9.383 35.274 9.645 35.25 9.906 L 35.25 9.951 C 35.202 10.469 34.972 10.953 34.6 11.316 L 26.396 19.558 C 25.391 20.562 24.13 21.273 22.75 21.613 Z"
        fill="#edf4ff"/>
    <path
        id="path_8"
        d="M 34.307 8.521 C 34.355 8.695 34.371 8.876 34.352 9.055 L 34.352 9.1 C 34.284 9.641 34.037 10.145 33.651 10.53 L 24.914 19.253 C 24.108 20.057 23.152 20.695 22.1 21.131 C 22.106 21.234 22.142 21.333 22.203 21.416 C 22.265 21.499 22.35 21.562 22.447 21.597 C 22.544 21.632 22.65 21.638 22.75 21.613 C 24.123 21.27 25.377 20.559 26.377 19.558 L 34.619 11.336 C 34.991 10.973 35.221 10.489 35.269 9.971 L 35.269 9.925 C 35.295 9.616 35.213 9.307 35.038 9.052 C 34.863 8.796 34.604 8.608 34.307 8.521 Z"
        fill="#d8e3f0"/>
    <path
        id="path_9"
        d="M 22.75 21.613 C 22.629 21.65 22.498 21.642 22.383 21.59 C 22.268 21.538 22.175 21.445 22.123 21.33 C 22.071 21.215 22.063 21.084 22.1 20.963 C 22.444 19.589 23.154 18.333 24.154 17.329 L 32.428 9.1 C 32.794 8.728 33.28 8.497 33.8 8.45 C 34.061 8.427 34.323 8.482 34.554 8.606 C 34.784 8.731 34.973 8.921 35.097 9.152 C 35.221 9.383 35.274 9.645 35.25 9.906 L 35.25 9.951 C 35.202 10.469 34.972 10.953 34.6 11.316 L 26.396 19.558 C 25.391 20.562 24.13 21.273 22.75 21.613 Z"
        fill="#ffffff"
        fill-rule="evenodd"/>
    <path
        id="path_10"
        d="M 34.281 23.439 L 29.133 16.822 L 32.441 13.514 L 35.75 21.97 Z M 20.313 9.47 L 26.93 14.618 L 30.238 11.31 L 21.782 8.001 Z"
        fill="#ffffff"/>
    <path
        id="path_11"
        d="M 9.594 24.343 C 9.422 24.343 9.256 24.412 9.134 24.533 C 9.013 24.655 8.944 24.821 8.944 24.993 L 8.944 27.32 C 8.951 27.493 9.024 27.657 9.149 27.777 C 9.274 27.897 9.44 27.964 9.614 27.964 C 9.787 27.964 9.953 27.897 10.078 27.777 C 10.203 27.657 10.276 27.493 10.283 27.32 L 10.283 25.012 C 10.287 24.891 10.257 24.772 10.197 24.667 C 10.136 24.562 10.048 24.476 9.942 24.419 C 9.835 24.361 9.715 24.335 9.594 24.342 Z M 10.264 20.364 C 10.264 20.186 10.193 20.016 10.068 19.89 C 9.942 19.765 9.772 19.694 9.594 19.694 C 9.416 19.694 9.246 19.765 9.12 19.89 C 8.995 20.016 8.924 20.186 8.924 20.364 L 8.924 22.692 C 8.924 22.87 8.995 23.04 9.12 23.166 C 9.246 23.291 9.416 23.362 9.594 23.362 C 9.772 23.362 9.942 23.291 10.068 23.166 C 10.193 23.04 10.264 22.87 10.264 22.692 L 10.264 20.364 Z"
        fill="#2c3f67"/>
    <path
        id="path_12"
        d="M 13.988 20.858 L 16.744 20.858 C 16.915 20.849 17.076 20.774 17.194 20.65 C 17.312 20.525 17.377 20.36 17.377 20.189 C 17.377 20.018 17.312 19.853 17.194 19.728 C 17.076 19.604 16.915 19.529 16.744 19.52 L 13.988 19.52 C 13.817 19.529 13.656 19.604 13.538 19.728 C 13.42 19.853 13.355 20.018 13.355 20.189 C 13.355 20.36 13.42 20.525 13.538 20.65 C 13.656 20.774 13.817 20.849 13.988 20.858 Z M 23.355 24.934 C 23.355 24.762 23.286 24.596 23.165 24.474 C 23.043 24.353 22.877 24.284 22.705 24.284 L 13.988 24.284 C 13.815 24.291 13.651 24.364 13.531 24.489 C 13.411 24.614 13.344 24.78 13.344 24.953 C 13.344 25.127 13.411 25.293 13.531 25.418 C 13.651 25.543 13.815 25.616 13.988 25.623 L 22.685 25.623 C 22.806 25.627 22.925 25.597 23.03 25.537 C 23.135 25.476 23.221 25.388 23.278 25.282 C 23.336 25.175 23.362 25.055 23.355 24.934 Z M 13.988 26.845 C 13.815 26.852 13.651 26.925 13.531 27.05 C 13.411 27.175 13.344 27.341 13.344 27.515 C 13.344 27.688 13.411 27.854 13.531 27.979 C 13.651 28.104 13.815 28.177 13.988 28.184 L 20.488 28.184 C 20.661 28.177 20.825 28.104 20.945 27.979 C 21.065 27.854 21.132 27.688 21.132 27.515 C 21.132 27.341 21.065 27.175 20.945 27.05 C 20.825 26.925 20.661 26.852 20.488 26.845 L 13.988 26.845 Z"
        fill="#3d3d63"/>
    <path
        id="path_13"
        d="M 36.4 21.723 L 33.228 13.65 L 35.1 11.81 C 35.585 11.321 35.882 10.676 35.938 9.99 C 35.969 9.698 35.934 9.402 35.835 9.126 C 35.736 8.849 35.576 8.598 35.366 8.392 C 35.158 8.182 34.907 8.02 34.629 7.917 C 34.352 7.815 34.056 7.775 33.761 7.8 C 33.079 7.86 32.44 8.157 31.954 8.639 L 30.069 10.524 L 22.029 7.378 C 21.908 7.327 21.774 7.314 21.645 7.34 C 21.516 7.367 21.398 7.432 21.307 7.527 L 19.838 8.996 C 19.77 9.062 19.717 9.142 19.684 9.231 C 19.65 9.32 19.636 9.414 19.643 9.509 C 19.654 9.673 19.723 9.828 19.838 9.945 C 19.857 9.965 19.878 9.983 19.903 9.997 L 21.509 11.245 L 21.307 11.447 C 21.182 11.573 21.112 11.744 21.112 11.921 C 21.112 12.099 21.183 12.269 21.308 12.395 C 21.434 12.52 21.604 12.591 21.782 12.591 C 21.959 12.591 22.13 12.521 22.256 12.396 L 22.575 12.077 L 23.712 12.961 L 23.504 13.169 C 23.379 13.295 23.309 13.466 23.309 13.643 C 23.309 13.821 23.38 13.991 23.505 14.117 C 23.631 14.242 23.801 14.313 23.979 14.313 C 24.156 14.313 24.327 14.243 24.453 14.118 L 24.778 13.793 L 25.916 14.677 L 23.718 16.9 L 23.374 17.27 L 21.249 16.451 C 21.128 16.402 20.995 16.391 20.867 16.419 C 20.74 16.447 20.624 16.513 20.534 16.608 L 19.591 17.55 C 19.504 17.631 19.441 17.735 19.409 17.849 C 19.377 17.964 19.377 18.085 19.409 18.2 C 19.441 18.314 19.504 18.418 19.591 18.499 L 21.586 20.494 C 21.554 20.611 21.515 20.729 21.489 20.846 C 21.423 21.113 21.451 21.395 21.568 21.643 C 21.686 21.891 21.886 22.092 22.135 22.209 C 22.383 22.327 22.665 22.355 22.932 22.288 L 23.277 22.191 L 25.279 24.186 C 25.36 24.271 25.463 24.333 25.577 24.364 C 25.69 24.396 25.81 24.396 25.923 24.364 C 26.037 24.333 26.14 24.271 26.221 24.186 L 27.17 23.238 C 27.264 23.148 27.328 23.031 27.355 22.904 C 27.382 22.776 27.37 22.643 27.32 22.523 L 26.507 20.397 C 26.63 20.287 26.754 20.176 26.871 20.059 L 29.068 17.855 L 29.958 19 L 29.634 19.318 C 29.547 19.399 29.484 19.503 29.452 19.617 C 29.42 19.732 29.42 19.853 29.452 19.968 C 29.484 20.082 29.547 20.186 29.634 20.267 C 29.715 20.354 29.819 20.416 29.933 20.448 C 30.048 20.48 30.168 20.48 30.283 20.448 C 30.397 20.416 30.501 20.354 30.582 20.267 L 30.784 20.066 L 31.674 21.203 L 31.356 21.522 C 31.231 21.648 31.161 21.819 31.161 21.996 C 31.161 22.174 31.232 22.344 31.357 22.47 C 31.483 22.595 31.653 22.666 31.831 22.666 C 32.008 22.666 32.179 22.596 32.305 22.471 L 32.5 22.269 L 33.748 23.875 L 33.807 23.939 C 33.923 24.052 34.074 24.12 34.235 24.134 C 34.331 24.142 34.427 24.129 34.517 24.095 C 34.607 24.061 34.688 24.008 34.755 23.939 L 36.225 22.464 C 36.328 22.375 36.401 22.255 36.432 22.122 C 36.464 21.989 36.452 21.849 36.4 21.723 Z M 22.1 19.11 L 20.988 17.999 L 21.158 17.836 L 22.522 18.356 C 22.369 18.6 22.228 18.852 22.1 19.11 Z M 21.32 9.406 L 21.97 8.756 L 29.061 11.531 L 26.897 13.695 L 21.32 9.405 Z M 25.747 22.75 L 24.642 21.645 C 24.895 21.515 25.148 21.372 25.389 21.223 L 25.916 22.587 L 25.746 22.75 Z M 25.922 19.097 C 25.068 19.949 24.012 20.572 22.854 20.91 C 23.196 19.741 23.832 18.678 24.7 17.823 L 32.903 9.587 C 33.164 9.326 33.51 9.165 33.878 9.133 C 33.975 9.124 34.072 9.137 34.163 9.171 C 34.254 9.205 34.336 9.258 34.404 9.328 C 34.478 9.402 34.533 9.492 34.565 9.592 C 34.597 9.691 34.604 9.797 34.586 9.9 C 34.556 10.261 34.397 10.6 34.138 10.855 L 25.922 19.097 Z M 34.34 22.425 L 30.023 16.9 L 32.194 14.736 L 34.964 21.827 L 34.34 22.425 Z M 13.988 20.858 L 16.744 20.858 C 16.915 20.849 17.076 20.774 17.194 20.65 C 17.312 20.525 17.377 20.36 17.377 20.189 C 17.377 20.018 17.312 19.853 17.194 19.728 C 17.076 19.604 16.915 19.529 16.744 19.52 L 13.988 19.52 C 13.817 19.529 13.656 19.604 13.538 19.728 C 13.42 19.853 13.355 20.018 13.355 20.189 C 13.355 20.36 13.42 20.525 13.538 20.65 C 13.656 20.774 13.817 20.849 13.988 20.858 Z M 13.319 24.934 C 13.319 25.293 13.609 25.584 13.969 25.584 L 22.679 25.584 C 22.852 25.577 23.016 25.504 23.136 25.379 C 23.256 25.254 23.323 25.088 23.323 24.915 C 23.323 24.741 23.256 24.575 23.136 24.45 C 23.016 24.325 22.852 24.252 22.679 24.245 L 13.988 24.245 C 13.867 24.241 13.748 24.271 13.643 24.331 C 13.538 24.392 13.452 24.48 13.395 24.586 C 13.337 24.693 13.311 24.813 13.318 24.934 Z M 13.988 26.845 C 13.815 26.852 13.651 26.925 13.531 27.05 C 13.411 27.175 13.344 27.341 13.344 27.515 C 13.344 27.688 13.411 27.854 13.531 27.979 C 13.651 28.104 13.815 28.177 13.988 28.184 L 20.488 28.184 C 20.661 28.177 20.825 28.104 20.945 27.979 C 21.065 27.854 21.132 27.688 21.132 27.515 C 21.132 27.341 21.065 27.175 20.945 27.05 C 20.825 26.925 20.661 26.852 20.488 26.845 L 13.988 26.845 Z"
        fill="#2c3f67"/>
    <path
        id="path_14"
        d="M 32.383 25.714 C 32.211 25.714 32.045 25.783 31.923 25.904 C 31.802 26.026 31.733 26.192 31.733 26.364 L 31.733 30.088 C 31.731 30.147 31.707 30.203 31.664 30.245 C 31.622 30.286 31.565 30.309 31.506 30.309 L 4.588 30.309 L 5.569 29.009 C 5.66 28.894 5.709 28.752 5.709 28.606 C 5.709 28.46 5.66 28.318 5.569 28.203 L 4.087 26.253 L 5.569 24.303 C 5.658 24.189 5.706 24.048 5.706 23.904 C 5.706 23.759 5.658 23.618 5.569 23.504 L 4.088 21.45 L 5.57 19.5 C 5.659 19.386 5.708 19.245 5.708 19.1 C 5.708 18.955 5.659 18.814 5.57 18.7 L 4.589 17.4 L 16.185 17.4 C 16.356 17.391 16.517 17.316 16.635 17.192 C 16.753 17.067 16.818 16.902 16.818 16.731 C 16.818 16.56 16.753 16.395 16.635 16.27 C 16.517 16.146 16.356 16.071 16.185 16.062 L 7.209 16.062 L 7.794 13.312 L 18.85 15.6 C 18.988 15.632 19.133 15.619 19.264 15.563 C 19.394 15.507 19.503 15.411 19.575 15.288 C 19.647 15.166 19.677 15.024 19.662 14.882 C 19.647 14.741 19.588 14.609 19.492 14.504 C 19.396 14.399 19.269 14.328 19.13 14.3 L 7.885 11.908 C 7.599 11.854 7.304 11.913 7.061 12.073 C 6.818 12.233 6.648 12.482 6.585 12.766 L 5.85 16.036 L 3.25 16.036 C 3.078 16.024 2.909 16.08 2.778 16.192 C 2.648 16.305 2.568 16.464 2.555 16.636 C 2.542 16.808 2.598 16.977 2.71 17.108 L 4.199 19.058 L 2.711 21.008 C 2.625 21.125 2.579 21.266 2.579 21.411 C 2.579 21.556 2.625 21.697 2.711 21.814 L 4.199 23.855 L 2.711 25.805 C 2.625 25.922 2.579 26.063 2.579 26.208 C 2.579 26.353 2.625 26.494 2.711 26.611 L 4.199 28.6 L 2.711 30.55 C 2.636 30.648 2.591 30.766 2.58 30.889 C 2.57 31.012 2.595 31.136 2.652 31.245 C 2.705 31.359 2.789 31.455 2.895 31.522 C 3.001 31.589 3.125 31.624 3.25 31.622 L 31.486 31.622 C 32.351 31.622 33.053 30.922 33.053 30.056 L 33.053 26.384 C 33.057 26.265 33.028 26.148 32.97 26.045 C 32.911 25.941 32.826 25.856 32.722 25.797 C 32.619 25.739 32.502 25.71 32.383 25.714 Z"
        fill="#3d3d63"/>
</svg>
