<svg
    xmlns="http://www.w3.org/2000/svg"
    viewBox="0 0 40 40"
    id="vector">
    <path
        id="path"
        d="M 0 0 L 40 0 L 40 40 L 0 40 Z"
        fill="#ffffff"
        fill-opacity="0.01"
        fill-rule="evenodd"/>
    <path
        id="path_1"
        d="M 30.393 6.313 L 22.747 5.573 C 22.62 5.56 22.492 5.584 22.379 5.641 C 22.265 5.699 22.17 5.787 22.105 5.897 C 22.041 6.007 22.009 6.133 22.013 6.26 L 22.387 16.22 C 22.391 16.351 22.434 16.477 22.51 16.584 C 22.586 16.691 22.691 16.773 22.813 16.82 L 27.62 18.667 C 27.697 18.693 27.778 18.707 27.86 18.707 C 27.945 18.708 28.029 18.692 28.107 18.66 L 30.94 17.547 C 31.054 17.502 31.154 17.427 31.228 17.329 C 31.302 17.231 31.348 17.115 31.36 16.993 L 32.187 8.487 C 32.236 7.961 32.074 7.437 31.738 7.03 C 31.402 6.623 30.918 6.365 30.393 6.313 Z"
        fill="#697bba"/>
    <path
        id="path_2"
        d="M 22.012 31.117 L 30.597 22.533 L 33.109 25.045 L 24.525 33.629 Z"
        fill="#ffffff"/>
    <path
        id="path_3"
        d="M 33.111 25.04 L 30.6 22.527 L 31.415 21.712 C 31.606 21.521 31.844 21.383 32.105 21.313 C 32.367 21.243 32.641 21.243 32.903 21.313 C 33.164 21.383 33.402 21.521 33.593 21.712 L 33.928 22.047 C 34.216 22.336 34.379 22.727 34.379 23.136 C 34.379 23.544 34.216 23.935 33.928 24.224 L 33.112 25.04 Z M 24.527 33.633 L 20.753 34.887 L 22.007 31.12 L 22.013 31.12 Z M 26.973 10.22 L 22.973 10.22 C 22.915 10.22 22.859 10.197 22.817 10.156 C 22.776 10.114 22.753 10.058 22.753 10 L 22.753 6 C 22.753 5.727 22.681 5.458 22.544 5.221 C 22.407 4.985 22.21 4.789 21.972 4.653 C 21.735 4.517 21.466 4.446 21.193 4.447 L 9.193 4.447 C 8.663 4.447 8.154 4.658 7.779 5.033 C 7.404 5.408 7.193 5.917 7.193 6.447 L 7.193 33.553 C 7.193 34.083 7.404 34.592 7.779 34.967 C 8.154 35.342 8.663 35.553 9.193 35.553 L 15.74 35.553 C 15.879 35.552 16.014 35.508 16.126 35.427 C 16.238 35.345 16.323 35.231 16.367 35.1 L 17.5 31.72 L 28.333 20.88 C 28.395 20.818 28.444 20.744 28.477 20.663 C 28.51 20.582 28.527 20.495 28.527 20.407 L 28.527 11.78 C 28.528 11.507 28.457 11.237 28.321 11 C 28.185 10.763 27.989 10.566 27.752 10.429 C 27.515 10.292 27.246 10.22 26.973 10.22 Z"
        fill="#97aaf1"/>
    <path
        id="path_4"
        d="M 14.88 9.427 L 7.867 9.427 L 7.867 19.647 L 14.88 19.647 C 15.738 19.647 16.433 18.951 16.433 18.093 L 16.433 10.98 C 16.433 10.122 15.738 9.427 14.88 9.427 Z"
        fill="#697bba"/>
    <path
        id="path_5"
        d="M 27.54 11.093 C 27.382 10.958 27.181 10.885 26.973 10.887 L 22.973 10.887 C 22.738 10.887 22.513 10.793 22.346 10.627 C 22.18 10.461 22.087 10.235 22.087 10 L 22.087 6 C 22.087 5.883 22.065 5.768 22.02 5.66 C 21.975 5.553 21.91 5.455 21.827 5.373 L 27.54 11.093 Z"
        fill="#97aaf1"/>
    <path
        id="path_6"
        d="M 11.503 21.3 L 13.996 21.3 C 14.137 21.3 14.271 21.356 14.371 21.455 C 14.47 21.555 14.526 21.689 14.526 21.83 L 14.526 24.323 C 14.526 24.464 14.47 24.598 14.371 24.698 C 14.271 24.797 14.137 24.853 13.996 24.853 L 11.503 24.853 C 11.362 24.853 11.228 24.797 11.128 24.698 C 11.029 24.598 10.973 24.464 10.973 24.323 L 10.973 21.83 C 10.973 21.689 11.029 21.555 11.128 21.455 C 11.228 21.356 11.362 21.3 11.503 21.3 Z"
        fill="#d9dfed"/>
    <path
        id="path_7"
        d="M 6.97 8.853 L 13.197 8.853 C 13.55 8.853 13.888 8.993 14.137 9.243 C 14.387 9.492 14.527 9.83 14.527 10.183 L 14.527 16.41 C 14.527 16.763 14.387 17.101 14.137 17.35 C 13.888 17.6 13.55 17.74 13.197 17.74 L 6.97 17.74 C 6.617 17.74 6.279 17.6 6.03 17.35 C 5.78 17.101 5.64 16.763 5.64 16.41 L 5.64 10.183 C 5.64 9.83 5.78 9.492 6.03 9.243 C 6.279 8.993 6.617 8.853 6.97 8.853 Z"
        fill="#ffffff"/>
    <path
        id="path_8"
        d="M 15.74 34.22 L 9.193 34.22 C 9.016 34.22 8.847 34.149 8.722 34.024 C 8.597 33.899 8.527 33.73 8.527 33.553 L 8.527 18.407 L 13.64 18.407 C 14.498 18.407 15.193 17.711 15.193 16.853 L 15.193 9.74 C 15.193 8.882 14.498 8.187 13.64 8.187 L 8.527 8.187 L 8.527 6.447 C 8.527 6.078 8.825 5.78 9.193 5.78 L 21.193 5.78 C 21.316 5.78 21.416 5.877 21.42 6 L 21.42 10 C 21.42 10.858 22.115 11.553 22.973 11.553 L 26.973 11.553 C 27.012 11.553 27.051 11.564 27.085 11.584 C 27.119 11.604 27.147 11.632 27.166 11.667 C 27.185 11.702 27.194 11.741 27.193 11.78 L 27.193 20.447 C 27.193 20.624 27.263 20.794 27.388 20.919 C 27.513 21.044 27.683 21.114 27.86 21.114 C 28.037 21.114 28.207 21.044 28.332 20.919 C 28.457 20.794 28.527 20.624 28.527 20.447 L 28.527 11.78 C 28.52 11.568 28.47 11.36 28.379 11.169 C 28.288 10.977 28.159 10.807 28 10.667 L 24.46 7.127 L 30.253 7.687 C 30.369 7.699 30.481 7.742 30.575 7.811 C 30.67 7.879 30.745 7.972 30.793 8.079 C 30.841 8.186 30.859 8.304 30.847 8.42 L 30.033 16.873 C 30.016 17.015 30.045 17.158 30.115 17.282 C 30.185 17.406 30.294 17.504 30.424 17.562 C 30.554 17.62 30.7 17.635 30.839 17.604 C 30.978 17.573 31.104 17.499 31.198 17.391 C 31.292 17.284 31.348 17.149 31.36 17.007 L 32.187 8.5 C 32.222 8.151 32.163 7.798 32.019 7.478 C 31.874 7.159 31.647 6.882 31.362 6.678 C 31.077 6.473 30.742 6.347 30.393 6.313 L 22.987 5.593 L 22.32 4.927 C 22.176 4.782 22.004 4.668 21.815 4.59 C 21.627 4.512 21.424 4.472 21.22 4.473 L 9.22 4.473 C 8.69 4.473 8.181 4.684 7.806 5.059 C 7.431 5.434 7.22 5.943 7.22 6.473 L 7.22 8.213 L 6.553 8.213 C 6.142 8.215 5.747 8.379 5.457 8.67 C 5.166 8.961 5.002 9.356 5 9.767 L 5 16.853 C 5 17.711 5.695 18.407 6.553 18.407 L 7.22 18.407 L 7.22 33.553 C 7.22 34.083 7.431 34.592 7.806 34.967 C 8.181 35.342 8.69 35.553 9.22 35.553 L 15.767 35.553 C 15.911 35.559 16.053 35.517 16.172 35.435 C 16.291 35.353 16.38 35.234 16.426 35.098 C 16.471 34.961 16.471 34.812 16.426 34.675 C 16.38 34.539 16.291 34.42 16.172 34.338 C 16.053 34.256 15.911 34.214 15.767 34.22 L 15.74 34.22 Z M 22.753 7.24 L 25.727 10.22 L 22.973 10.22 C 22.915 10.22 22.859 10.197 22.817 10.156 C 22.776 10.114 22.753 10.058 22.753 10 L 22.753 7.24 Z M 6.307 16.853 L 6.307 9.74 C 6.307 9.682 6.33 9.626 6.371 9.584 C 6.413 9.543 6.469 9.52 6.527 9.52 L 13.64 9.52 C 13.698 9.52 13.754 9.543 13.796 9.584 C 13.837 9.626 13.86 9.682 13.86 9.74 L 13.86 16.853 C 13.86 16.911 13.837 16.967 13.796 17.009 C 13.754 17.05 13.698 17.073 13.64 17.073 L 6.527 17.073 C 6.469 17.073 6.413 17.05 6.371 17.009 C 6.33 16.967 6.307 16.911 6.307 16.853 Z"
        fill="#2c3f67"/>
    <path
        id="path_9"
        d="M 11.333 20.667 C 11.153 20.666 10.976 20.712 10.82 20.802 C 10.664 20.891 10.535 21.02 10.445 21.175 C 10.354 21.331 10.307 21.507 10.307 21.687 L 10.307 24.533 C 10.328 25.085 10.782 25.52 11.333 25.52 L 14.173 25.52 C 14.443 25.52 14.703 25.412 14.894 25.221 C 15.085 25.03 15.193 24.77 15.193 24.5 L 15.193 21.653 C 15.186 21.388 15.075 21.136 14.884 20.952 C 14.694 20.767 14.438 20.665 14.173 20.667 L 11.333 20.667 Z M 13.86 24.22 L 11.64 24.22 L 11.64 22 L 13.86 22 L 13.86 24.22 Z M 23.64 24.427 C 23.64 24.31 23.609 24.195 23.551 24.093 C 23.492 23.992 23.408 23.908 23.306 23.849 C 23.205 23.791 23.09 23.76 22.973 23.76 L 17.64 23.76 C 17.468 23.767 17.305 23.84 17.185 23.964 C 17.066 24.088 16.999 24.254 16.999 24.427 C 16.999 24.599 17.066 24.765 17.185 24.889 C 17.305 25.013 17.468 25.086 17.64 25.093 L 22.973 25.093 C 23.15 25.093 23.319 25.023 23.444 24.898 C 23.569 24.773 23.64 24.604 23.64 24.427 Z M 17.64 21.06 C 17.468 21.067 17.305 21.14 17.185 21.264 C 17.066 21.388 16.999 21.554 16.999 21.727 C 16.999 21.899 17.066 22.065 17.185 22.189 C 17.305 22.313 17.468 22.386 17.64 22.393 L 19.86 22.393 C 20.004 22.399 20.146 22.357 20.265 22.275 C 20.384 22.193 20.473 22.074 20.519 21.938 C 20.564 21.801 20.564 21.652 20.519 21.515 C 20.473 21.379 20.384 21.26 20.265 21.178 C 20.146 21.096 20.004 21.054 19.86 21.06 L 17.64 21.06 Z M 22.753 15.52 C 22.753 15.343 22.683 15.174 22.558 15.049 C 22.433 14.924 22.264 14.853 22.087 14.853 L 17.64 14.853 C 17.463 14.853 17.293 14.923 17.168 15.048 C 17.043 15.173 16.973 15.343 16.973 15.52 C 16.973 15.697 17.043 15.867 17.168 15.992 C 17.293 16.117 17.463 16.187 17.64 16.187 L 22.087 16.187 C 22.264 16.187 22.433 16.116 22.558 15.991 C 22.683 15.866 22.753 15.697 22.753 15.52 Z M 17.64 13.48 L 19.86 13.48 C 20.032 13.473 20.195 13.4 20.315 13.276 C 20.434 13.152 20.501 12.986 20.501 12.813 C 20.501 12.641 20.434 12.475 20.315 12.351 C 20.195 12.227 20.032 12.154 19.86 12.147 L 17.64 12.147 C 17.496 12.141 17.354 12.183 17.235 12.265 C 17.116 12.347 17.027 12.466 16.981 12.602 C 16.936 12.739 16.936 12.888 16.981 13.025 C 17.027 13.161 17.116 13.28 17.235 13.362 C 17.354 13.444 17.496 13.486 17.64 13.48 Z"
        fill="#2c3f67"/>
    <path
        id="path_10"
        d="M 11.333 11.6 L 9.333 13.6 L 8.76 13.027 C 8.661 12.924 8.531 12.855 8.39 12.831 C 8.249 12.807 8.104 12.829 7.977 12.894 C 7.849 12.959 7.746 13.063 7.682 13.191 C 7.618 13.319 7.597 13.464 7.622 13.605 C 7.647 13.745 7.716 13.875 7.82 13.973 L 8.86 15.013 C 8.985 15.141 9.155 15.213 9.333 15.213 C 9.421 15.213 9.509 15.195 9.59 15.161 C 9.671 15.126 9.745 15.076 9.807 15.013 L 12.26 12.567 C 12.383 12.443 12.453 12.276 12.454 12.101 C 12.456 11.926 12.389 11.758 12.268 11.632 C 12.147 11.506 11.981 11.432 11.807 11.426 C 11.632 11.42 11.462 11.482 11.333 11.6 Z"
        fill="#3d3d63"/>
    <path
        id="path_11"
        d="M 34.38 21.6 L 34.04 21.26 C 33.626 20.847 33.065 20.614 32.48 20.614 C 31.895 20.614 31.334 20.847 30.92 21.26 L 21.54 30.667 C 21.465 30.738 21.409 30.828 21.38 30.927 L 20.12 34.667 C 20.069 34.824 20.078 34.994 20.145 35.144 C 20.212 35.294 20.333 35.415 20.483 35.482 C 20.633 35.549 20.803 35.558 20.96 35.507 L 24.733 34.267 C 24.832 34.232 24.921 34.175 24.993 34.1 L 34.38 24.72 C 34.793 24.306 35.026 23.745 35.026 23.16 C 35.026 22.575 34.793 22.014 34.38 21.6 Z M 21.807 33.833 L 22.3 32.353 L 23.287 33.333 L 21.807 33.833 Z M 24.527 32.667 L 22.953 31.1 L 28.953 25.1 L 30.527 26.667 L 24.527 32.667 Z M 31.473 25.74 L 29.9 24.173 L 30.567 23.507 L 32.133 25.08 L 31.473 25.74 Z M 33.433 23.74 L 33.113 24.067 L 31.54 22.533 L 31.867 22.207 C 32.031 22.044 32.252 21.952 32.483 21.952 C 32.715 21.952 32.936 22.044 33.1 22.207 L 33.433 22.54 C 33.773 22.88 33.773 23.432 33.433 23.773 L 33.433 23.74 Z"
        fill="#2c3f67"/>
</svg>
