<svg
    xmlns="http://www.w3.org/2000/svg"
    viewBox="0 0 28 27"
    id="vector">
    <path
        id="path"
        d="M 0 0 L 28 0 L 28 27 L 0 27 Z"
        fill="#ffffff"
        fill-opacity="0.01"/>
    <path
        id="path_1"
        d="M 20 22 L 6 22 C 4.897 22 4 21.104 4 20 L 4 8 C 4 6.898 4.897 6 6 6 L 16 6 L 16 8 L 6 8 L 6 20 L 20 20 L 20 15 L 22 15 L 22 20 C 22 21.104 21.103 22 20 22"
        fill="#35a4a5"
        fill-rule="evenodd"/>
    <path
        id="path_2"
        d="M 13.043 17.811 L 8.116 12.885 L 9.884 11.117 L 12.957 14.19 L 22.075 4.16 L 23.925 5.841 Z"
        fill="#35a4a5"
        fill-rule="evenodd"/>
</svg>
