<svg
    xmlns="http://www.w3.org/2000/svg"
    viewBox="0 0 60 60"
    id="vector">
    <path
        id="path"
        d="M 0 0 L 60 0 L 60 60 L 0 60 Z"
        fill="#ffffff"
        fill-opacity="0.01"
        fill-rule="evenodd"/>
    <path
        id="path_1"
        d="M 40.13 44.34 L 39.32 44.34 C 37.758 44.337 36.258 43.714 35.155 42.608 C 34.051 41.503 33.43 40.002 33.43 38.44 L 33.43 35.82 L 26.82 35.82 L 26.82 38.44 C 26.822 39.475 26.551 40.492 26.034 41.389 C 25.518 42.286 24.774 43.031 23.878 43.549 C 22.982 44.067 21.965 44.34 20.93 44.34 L 19.87 44.34 C 18.423 44.338 17 44.718 15.746 45.441 C 14.492 46.163 13.45 47.204 12.726 48.457 C 12.001 49.71 11.62 51.133 11.62 52.58 L 11.62 54.33 L 48.38 54.33 L 48.38 52.58 C 48.38 51.133 47.999 49.71 47.274 48.457 C 46.55 47.204 45.508 46.163 44.254 45.441 C 43 44.718 41.577 44.338 40.13 44.34 Z"
        fill="#fcfeff"/>
    <path
        id="path_2"
        d="M 35.41 54.33 L 34 49.56 C 34.365 49.561 34.718 49.433 34.998 49.199 C 35.278 48.965 35.466 48.639 35.53 48.28 L 36.36 43.55 C 35.128 42.831 34.191 41.696 33.72 40.35 L 26.5 40.35 C 26.005 41.786 24.978 42.979 23.63 43.68 L 24.44 48.28 C 24.504 48.644 24.697 48.974 24.983 49.209 C 25.269 49.443 25.63 49.568 26 49.56 L 24.57 54.33 L 35.41 54.33 Z"
        fill="#d8e3f0"/>
    <path
        id="path_3"
        d="M 48.38 51 C 46.653 51.758 44.786 52.15 42.9 52.15 L 17.1 52.15 C 15.214 52.15 13.347 51.758 11.62 51 L 11.62 54.29 L 48.38 54.29 L 48.38 51 Z"
        fill="#d8e3f0"/>
    <path
        id="path_4"
        d="M 26.72 45.83 L 33.28 45.83 L 32.59 49.75 L 27.41 49.75 Z"
        fill="#69baf9"/>
    <path
        id="path_5"
        d="M 36.6 38.98 L 30 45.06 L 34.46 49.52 L 38.47 42.2 Z M 23.4 38.98 L 30 45.06 L 25.54 49.52 L 21.53 42.2 Z"
        fill="#fcfeff"/>
    <path
        id="path_6"
        d="M 32.59 54.33 L 31.22 49.75 L 28.78 49.75 L 27.41 54.33 Z"
        fill="#69baf9"/>
    <path
        id="path_7"
        d="M 41 19.16 L 41 30.36 C 40.981 32.271 40.459 34.145 39.486 35.79 C 38.514 37.436 37.125 38.797 35.46 39.736 C 33.795 40.675 31.911 41.159 30 41.14 C 28.089 41.159 26.205 40.675 24.54 39.736 C 22.875 38.797 21.486 37.436 20.514 35.79 C 19.541 34.145 19.019 32.271 19 30.36 L 19 19.16"
        fill="#ffdead"/>
    <path
        id="path_8"
        d="M 37.71 19.16 L 37.71 30.36 C 37.691 32.961 36.735 35.469 35.018 37.423 C 33.301 39.376 30.937 40.647 28.36 41 C 30.431 41.337 32.556 41.069 34.478 40.228 C 36.4 39.386 38.038 38.007 39.195 36.256 C 40.352 34.506 40.979 32.458 41 30.36 L 41 19.16 L 37.71 19.16 Z"
        fill="#ffc670"/>
    <path
        id="path_9"
        d="M 16.49 15.56 L 43.52 15.56 C 44.087 15.56 44.632 15.786 45.033 16.187 C 45.434 16.588 45.66 17.133 45.66 17.7 L 45.66 17.7 C 45.66 18.267 45.434 18.812 45.033 19.213 C 44.632 19.614 44.087 19.84 43.52 19.84 L 16.49 19.84 C 15.923 19.84 15.378 19.614 14.977 19.213 C 14.576 18.812 14.35 18.267 14.35 17.7 L 14.35 17.7 C 14.35 17.133 14.576 16.588 14.977 16.187 C 15.378 15.786 15.923 15.56 16.49 15.56 Z"
        fill="#f6716f"/>
    <path
        id="path_10"
        d="M 43.51 15.56 L 39.28 15.56 C 39.823 15.597 40.333 15.839 40.705 16.237 C 41.076 16.635 41.283 17.16 41.283 17.705 C 41.283 18.25 41.076 18.775 40.705 19.173 C 40.333 19.571 39.823 19.813 39.28 19.85 L 43.51 19.85 C 44.053 19.813 44.563 19.571 44.935 19.173 C 45.306 18.775 45.513 18.25 45.513 17.705 C 45.513 17.16 45.306 16.635 44.935 16.237 C 44.563 15.839 44.053 15.597 43.51 15.56 Z"
        fill="#f0504d"/>
    <path
        id="path_11"
        d="M 16.49 15.56 L 20.72 15.56 C 20.177 15.597 19.667 15.839 19.295 16.237 C 18.924 16.635 18.717 17.16 18.717 17.705 C 18.717 18.25 18.924 18.775 19.295 19.173 C 19.667 19.571 20.177 19.813 20.72 19.85 L 16.49 19.85 C 15.947 19.813 15.437 19.571 15.065 19.173 C 14.694 18.775 14.487 18.25 14.487 17.705 C 14.487 17.16 14.694 16.635 15.065 16.237 C 15.437 15.839 15.947 15.597 16.49 15.56 Z"
        fill="#f6a2a2"/>
    <path
        id="path_12"
        d="M 35.1 5.87 L 31.86 7 C 30.656 7.42 29.344 7.42 28.14 7 L 24.9 5.87 C 24.156 5.612 23.348 5.598 22.595 5.832 C 21.843 6.066 21.185 6.535 20.718 7.169 C 20.251 7.804 19.999 8.572 20 9.36 L 20 15.56 L 40 15.56 L 40 9.36 C 40.001 8.572 39.749 7.804 39.282 7.169 C 38.815 6.535 38.157 6.066 37.405 5.832 C 36.652 5.598 35.844 5.612 35.1 5.87 Z"
        fill="#f6716f"/>
    <path
        id="path_13"
        d="M 35.1 5.87 L 34.47 6.08 C 35.072 6.391 35.576 6.862 35.929 7.44 C 36.282 8.018 36.469 8.683 36.47 9.36 L 36.47 15.56 L 40 15.56 L 40 9.36 C 40.001 8.572 39.749 7.804 39.282 7.169 C 38.815 6.535 38.157 6.066 37.405 5.832 C 36.652 5.598 35.844 5.612 35.1 5.87 Z"
        fill="#f0504d"/>
    <path
        id="path_14"
        d="M 24.9 5.87 L 25.53 6.08 C 24.928 6.391 24.424 6.862 24.071 7.44 C 23.718 8.018 23.531 8.683 23.53 9.36 L 23.53 15.56 L 20 15.56 L 20 9.36 C 19.999 8.572 20.251 7.804 20.718 7.169 C 21.185 6.535 21.843 6.066 22.595 5.832 C 23.348 5.598 24.156 5.612 24.9 5.87 Z"
        fill="#f6a2a2"/>
    <path
        id="path_15"
        d="M 20.01 11.94 L 39.99 11.94 L 39.99 15.56 L 20.01 15.56 Z"
        fill="#fcfeff"/>
    <path
        id="path_16"
        d="M 19 29.8 L 19 22.94 L 16.83 22.94 C 16.336 22.921 15.854 23.099 15.49 23.434 C 15.127 23.77 14.911 24.236 14.89 24.73 L 14.89 26 C 14.942 27.045 15.402 28.029 16.17 28.739 C 16.938 29.449 17.954 29.83 19 29.8 Z M 41 29.8 L 41 22.94 L 43.18 22.94 C 43.674 22.921 44.156 23.099 44.52 23.434 C 44.883 23.77 45.099 24.236 45.12 24.73 L 45.12 26 C 45.068 27.047 44.607 28.032 43.837 28.742 C 43.067 29.453 42.047 29.833 41 29.8 Z"
        fill="#ffc670"/>
    <path
        id="path_17"
        d="M 52.06 53.33 L 49.38 53.33 L 49.38 52.58 C 49.377 50.129 48.401 47.778 46.667 46.046 C 44.933 44.314 42.581 43.34 40.13 43.34 L 39 43.34 L 39.35 42.71 C 39.438 42.558 39.484 42.386 39.484 42.21 C 39.484 42.034 39.438 41.862 39.35 41.71 L 37.91 39.21 C 39.145 38.155 40.146 36.854 40.85 35.391 C 41.555 33.927 41.946 32.333 42 30.71 C 43.126 30.526 44.153 29.955 44.904 29.096 C 45.654 28.236 46.081 27.141 46.11 26 L 46.11 24.73 C 46.089 23.971 45.768 23.25 45.217 22.727 C 44.666 22.205 43.929 21.921 43.17 21.94 L 42 21.94 L 42 20.85 L 43.52 20.85 C 44.323 20.805 45.079 20.453 45.632 19.869 C 46.184 19.284 46.493 18.509 46.493 17.705 C 46.493 16.901 46.184 16.126 45.632 15.541 C 45.079 14.957 44.323 14.605 43.52 14.56 L 41 14.56 L 41 9.36 C 41.001 8.361 40.682 7.387 40.091 6.582 C 39.5 5.776 38.666 5.18 37.713 4.882 C 36.76 4.583 35.735 4.596 34.79 4.92 L 31.54 6 C 30.542 6.34 29.458 6.34 28.46 6 L 25.22 4.92 C 24.274 4.594 23.248 4.578 22.293 4.876 C 21.337 5.175 20.502 5.771 19.91 6.577 C 19.318 7.384 18.999 8.359 19 9.36 L 19 14.56 L 16.49 14.56 C 15.687 14.605 14.931 14.957 14.378 15.541 C 13.826 16.126 13.517 16.901 13.517 17.705 C 13.517 18.509 13.826 19.284 14.378 19.869 C 14.931 20.453 15.687 20.805 16.49 20.85 L 18 20.85 L 18 21.94 L 16.83 21.94 C 16.071 21.921 15.334 22.205 14.783 22.727 C 14.232 23.25 13.911 23.971 13.89 24.73 L 13.89 26 C 13.919 27.141 14.346 28.236 15.096 29.096 C 15.847 29.955 16.874 30.526 18 30.71 C 18.054 32.331 18.445 33.923 19.147 35.384 C 19.849 36.846 20.848 38.145 22.08 39.2 L 20.64 41.7 C 20.552 41.852 20.506 42.024 20.506 42.2 C 20.506 42.376 20.552 42.548 20.64 42.7 L 21 43.35 L 19.87 43.35 C 17.419 43.35 15.067 44.324 13.333 46.056 C 11.599 47.788 10.623 50.139 10.62 52.59 L 10.62 53.34 L 7.94 53.34 C 7.675 53.34 7.42 53.445 7.233 53.633 C 7.045 53.82 6.94 54.075 6.94 54.34 C 6.94 54.605 7.045 54.86 7.233 55.047 C 7.42 55.235 7.675 55.34 7.94 55.34 L 52.06 55.34 C 52.325 55.34 52.58 55.235 52.767 55.047 C 52.955 54.86 53.06 54.605 53.06 54.34 C 53.06 54.075 52.955 53.82 52.767 53.633 C 52.58 53.445 52.325 53.34 52.06 53.34 L 52.06 53.33 Z M 18 28.64 C 17.413 28.483 16.891 28.141 16.511 27.666 C 16.132 27.192 15.914 26.607 15.89 26 L 15.89 24.73 C 15.91 24.501 16.021 24.289 16.197 24.141 C 16.373 23.993 16.601 23.921 16.83 23.94 L 18 23.94 L 18 28.64 Z M 37.32 42.21 L 34.23 47.87 L 31.44 45.09 L 36.36 40.56 L 37.32 42.21 Z M 43.17 23.94 C 43.399 23.921 43.627 23.993 43.803 24.141 C 43.979 24.289 44.09 24.501 44.11 24.73 L 44.11 26 C 44.086 26.607 43.868 27.192 43.489 27.666 C 43.109 28.141 42.587 28.483 42 28.64 L 42 23.94 L 43.17 23.94 Z M 21 9.36 C 20.997 8.931 21.098 8.507 21.295 8.126 C 21.492 7.744 21.778 7.416 22.13 7.17 C 22.479 6.92 22.882 6.756 23.306 6.694 C 23.731 6.631 24.164 6.671 24.57 6.81 L 27.8 7.92 C 29.22 8.4 30.76 8.4 32.18 7.92 L 35.41 6.81 C 35.816 6.671 36.249 6.631 36.674 6.694 C 37.098 6.756 37.501 6.92 37.85 7.17 C 38.205 7.414 38.496 7.741 38.696 8.123 C 38.897 8.504 39.001 8.929 39 9.36 L 39 10.94 L 21 10.94 L 21 9.36 Z M 21 12.94 L 39 12.94 L 39 14.56 L 21 14.56 L 21 12.94 Z M 16.48 18.85 C 16.195 18.823 15.93 18.691 15.737 18.479 C 15.544 18.268 15.437 17.991 15.437 17.705 C 15.437 17.419 15.544 17.142 15.737 16.931 C 15.93 16.719 16.195 16.587 16.48 16.56 L 43.48 16.56 C 43.765 16.587 44.03 16.719 44.223 16.931 C 44.416 17.142 44.523 17.419 44.523 17.705 C 44.523 17.991 44.416 18.268 44.223 18.479 C 44.03 18.691 43.765 18.823 43.48 18.85 L 16.48 18.85 Z M 20 30.36 L 20 20.85 L 40 20.85 L 40 30.36 C 40 35.88 35.52 40.36 30 40.36 C 24.48 40.36 20 35.88 20 30.36 Z M 30 42.14 C 30.63 42.14 31.25 42.09 31.87 42 L 30 43.7 L 28.13 42 C 28.75 42.09 29.37 42.14 30 42.14 Z M 28.56 45.14 L 25.77 47.92 L 22.68 42.26 L 23.68 40.61 L 28.56 45.14 Z M 26.67 53.38 L 12.62 53.38 L 12.62 52.63 C 12.623 50.71 13.388 48.867 14.747 47.51 C 16.106 46.153 17.95 45.39 19.87 45.39 L 20.93 45.39 C 21.305 45.387 21.68 45.353 22.05 45.29 L 24.66 50 C 24.733 50.137 24.837 50.256 24.963 50.346 C 25.09 50.437 25.236 50.496 25.39 50.52 L 25.54 50.52 C 25.804 50.516 26.055 50.408 26.24 50.22 L 26.46 50.01 C 26.518 50.218 26.642 50.401 26.814 50.533 C 26.985 50.665 27.194 50.737 27.41 50.74 L 26.67 53.38 Z M 28.76 53.38 L 29.53 50.8 L 30.47 50.8 L 31.24 53.38 L 28.76 53.38 Z M 31.76 48.8 L 28.26 48.8 L 28.18 48.35 L 30 46.48 L 31.83 48.3 L 31.76 48.8 Z M 47.39 53.38 L 33.33 53.38 L 32.56 50.8 C 32.776 50.797 32.985 50.725 33.156 50.593 C 33.328 50.461 33.452 50.278 33.51 50.07 L 33.73 50.28 C 33.915 50.468 34.166 50.576 34.43 50.58 L 34.58 50.58 C 34.734 50.556 34.88 50.497 35.007 50.406 C 35.133 50.316 35.237 50.197 35.31 50.06 L 38 45.19 C 38.44 45.28 38.89 45.33 39.34 45.34 L 40.15 45.34 C 44.15 45.34 47.39 48.58 47.4 52.58 L 47.39 53.38 Z"
        fill="#3d3d63"/>
    <path
        id="path_18"
        d="M 25.56 26.6 C 25.825 26.6 26.08 26.495 26.267 26.307 C 26.455 26.12 26.56 25.865 26.56 25.6 L 26.56 24.45 C 26.56 24.185 26.455 23.93 26.267 23.743 C 26.08 23.555 25.825 23.45 25.56 23.45 C 25.295 23.45 25.04 23.555 24.853 23.743 C 24.665 23.93 24.56 24.185 24.56 24.45 L 24.56 25.6 C 24.56 25.865 24.665 26.12 24.853 26.307 C 25.04 26.495 25.295 26.6 25.56 26.6 Z"
        fill="#3d3d63"/>
    <path
        id="path_19"
        d="M 25.32 32.72 C 25.315 32.939 25.367 33.156 25.472 33.349 C 25.577 33.542 25.732 33.703 25.919 33.818 C 26.106 33.932 26.321 33.995 26.54 34 C 27.197 34.017 27.839 34.2 28.406 34.53 C 28.974 34.86 29.45 35.328 29.79 35.89 C 29.9 36.06 30.06 36.21 30.24 36.32 C 30.481 36.46 30.762 36.516 31.038 36.477 C 31.315 36.439 31.57 36.31 31.765 36.11 C 31.959 35.91 32.081 35.651 32.111 35.374 C 32.141 35.096 32.077 34.817 31.93 34.58 C 31.368 33.664 30.586 32.902 29.655 32.364 C 28.725 31.827 27.674 31.529 26.6 31.5 C 26.381 31.495 26.164 31.547 25.971 31.652 C 25.778 31.757 25.617 31.912 25.502 32.099 C 25.388 32.286 25.325 32.501 25.32 32.72 Z M 25.64 22.58 L 24.87 23.42 L 24.03 22.65 C 23.859 22.478 23.635 22.367 23.395 22.334 C 23.154 22.301 22.909 22.348 22.698 22.467 C 22.486 22.586 22.32 22.772 22.224 22.995 C 22.128 23.218 22.108 23.467 22.167 23.703 C 22.226 23.938 22.36 24.148 22.55 24.3 L 23.45 25.06 L 22.68 25.9 C 22.524 26.073 22.427 26.291 22.402 26.523 C 22.378 26.755 22.428 26.988 22.545 27.19 C 22.662 27.391 22.84 27.551 23.053 27.645 C 23.266 27.739 23.503 27.763 23.731 27.714 C 23.959 27.664 24.165 27.544 24.32 27.37 L 25.09 26.53 L 25.93 27.3 C 26.151 27.477 26.432 27.563 26.715 27.54 C 26.997 27.516 27.261 27.386 27.45 27.175 C 27.639 26.964 27.741 26.688 27.733 26.404 C 27.726 26.121 27.61 25.851 27.41 25.65 L 26.56 24.89 L 27.32 24.04 C 27.72 23.59 27.68 22.9 27.23 22.49 C 27.085 22.352 26.904 22.256 26.708 22.213 C 26.512 22.17 26.308 22.181 26.118 22.246 C 25.928 22.311 25.759 22.426 25.63 22.58 Z M 34.64 22.58 L 33.87 23.42 L 33.03 22.65 C 32.859 22.478 32.635 22.367 32.395 22.334 C 32.154 22.301 31.909 22.348 31.698 22.467 C 31.486 22.586 31.32 22.772 31.224 22.995 C 31.128 23.218 31.108 23.467 31.167 23.703 C 31.226 23.938 31.36 24.148 31.55 24.3 L 32.45 25.06 L 31.68 25.9 C 31.524 26.073 31.427 26.291 31.402 26.523 C 31.378 26.755 31.428 26.988 31.545 27.19 C 31.662 27.391 31.84 27.551 32.053 27.645 C 32.266 27.739 32.503 27.763 32.731 27.714 C 32.959 27.664 33.165 27.544 33.32 27.37 L 34.09 26.53 L 34.93 27.3 C 35.151 27.477 35.432 27.563 35.715 27.54 C 35.997 27.516 36.261 27.386 36.45 27.175 C 36.639 26.964 36.741 26.688 36.733 26.404 C 36.726 26.121 36.61 25.851 36.41 25.65 L 35.56 24.89 L 36.32 24.04 C 36.72 23.59 36.68 22.9 36.23 22.49 C 36.085 22.352 35.904 22.256 35.708 22.213 C 35.512 22.17 35.308 22.181 35.118 22.246 C 34.928 22.311 34.759 22.426 34.63 22.58 Z"
        fill="#3d3d63"/>
</svg>
