<svg
    xmlns="http://www.w3.org/2000/svg"
    viewBox="0 0 26 26"
    id="vector">
    <path
        id="path"
        d="M 0 0 L 26 0 L 26 26 L 0 26 Z"
        fill="#d9dfed"
        fill-opacity="0.01"/>
    <path
        id="path_1"
        d="M 14.5 17.5 C 14.501 17.817 14.401 18.127 14.215 18.384 C 14.029 18.642 13.766 18.833 13.464 18.932 C 13.162 19.03 12.837 19.03 12.535 18.932 C 12.233 18.833 11.97 18.642 11.784 18.384 C 11.598 18.127 11.498 17.817 11.499 17.5 C 11.5 17.103 11.659 16.722 11.94 16.442 C 12.221 16.162 12.603 16.004 12.999 16.004 C 13.396 16.004 13.778 16.162 14.059 16.442 C 14.34 16.722 14.499 17.103 14.5 17.5"
        fill="#16324c"
        fill-rule="evenodd"/>
    <path
        id="path_2"
        d="M 8 21 L 8 14 L 18 14 L 18.001 21 L 8 21 Z M 10 8 C 10 6.346 11.346 5 13 5 C 14.654 5 16 6.347 16 8 L 16 12 L 10 12 L 10 8 Z M 18 12 L 18 8 C 18 5.243 15.757 3 13 3 C 10.243 3 8 5.243 8 8 L 8 12 C 6.897 12 6 12.896 6 14 L 6 21 C 6 22.103 6.897 23 8 23 L 18 23 C 19.103 23 20 22.103 20 21 L 20 14 C 20 12.896 19.103 12 18 12 Z"
        fill="#16324c"
        fill-rule="evenodd"/>
</svg>
