<svg
    xmlns="http://www.w3.org/2000/svg"
    viewBox="0 0 60 60"
    id="vector">
    <path
        id="path"
        d="M 0 0 L 60 0 L 60 60 L 0 60 Z"
        fill="#ffffff"
        fill-opacity="0.01"
        fill-rule="evenodd"/>
    <path
        id="path_1"
        d="M 19.16 11 L 41.83 11 L 41.83 19.67 C 41.83 20.607 41.583 21.527 41.114 22.338 C 40.645 23.149 39.971 23.822 39.159 24.289 C 38.347 24.757 37.427 25.002 36.49 25 L 24.49 25 C 23.077 25 21.72 24.438 20.721 23.439 C 19.722 22.44 19.16 21.083 19.16 19.67 L 19.16 11 Z"
        fill="#79deb4"/>
    <path
        id="path_2"
        d="M 34.49 21.52 L 34.49 11 L 26.49 11 L 26.49 21.52 C 18.69 23.53 13.6 31.04 14.62 39.03 C 15.63 47.02 22.44 53.01 30.49 53.01 C 38.55 53.01 45.35 47.02 46.36 39.03 C 47.38 31.04 42.29 23.54 34.49 21.52 Z"
        fill="#edf4ff"/>
    <path
        id="path_3"
        d="M 30.49 43 C 24.607 43.008 18.917 40.875 14.49 37 C 14.49 45.84 21.65 53 30.49 53 C 39.33 53 46.49 45.84 46.49 37 C 42.063 40.876 36.373 43.009 30.49 43 Z"
        fill="#d8e3f0"/>
    <path
        id="path_4"
        d="M 43.83 7 L 17.16 7 C 16.63 7 16.121 7.211 15.746 7.586 C 15.371 7.961 15.16 8.47 15.16 9 C 15.16 9.53 15.371 10.039 15.746 10.414 C 16.121 10.789 16.63 11 17.16 11 L 43.83 11 C 44.36 11 44.869 10.789 45.244 10.414 C 45.619 10.039 45.83 9.53 45.83 9 C 45.83 8.47 45.619 7.961 45.244 7.586 C 44.869 7.211 44.36 7 43.83 7 Z"
        fill="#ffc670"/>
    <path
        id="path_5"
        d="M 30.49 37 M 18.49 37 C 18.49 34.466 19.292 31.996 20.782 29.947 C 22.271 27.897 24.372 26.37 26.782 25.587 C 29.192 24.804 31.788 24.804 34.198 25.587 C 36.608 26.37 38.709 27.897 40.198 29.947 C 41.688 31.996 42.49 34.466 42.49 37 C 42.49 40.181 41.225 43.236 38.975 45.485 C 36.726 47.735 33.671 49 30.49 49 C 27.309 49 24.254 47.735 22.005 45.485 C 19.755 43.236 18.49 40.181 18.49 37"
        fill="#ffc670"/>
    <path
        id="path_6"
        d="M 30.49 39.75 C 26.401 39.758 22.342 39.061 18.49 37.69 C 18.721 40.704 20.082 43.523 22.3 45.577 C 24.518 47.632 27.432 48.774 30.455 48.774 C 33.478 48.774 36.392 47.632 38.61 45.577 C 40.828 43.523 42.189 40.704 42.42 37.69 C 38.59 39.052 34.555 39.748 30.49 39.75 Z"
        fill="#ffa742"/>
    <path
        id="path_7"
        d="M 29.06 30 L 26.06 34.67 L 29.06 34.67 L 29.06 44 L 33.06 44 L 33.06 30 Z"
        fill="#ffdead"/>
    <path
        id="path_8"
        d="M 55.94 23.05 L 50.6 20.75 L 49.46 15 C 49.424 14.817 49.337 14.648 49.21 14.512 C 49.083 14.376 48.92 14.279 48.74 14.23 C 48.561 14.184 48.373 14.189 48.196 14.244 C 48.02 14.298 47.862 14.401 47.74 14.54 L 45.09 17.54 C 44.929 17.722 44.84 17.957 44.84 18.2 L 44.84 20.2 C 44.839 21.135 44.627 22.058 44.22 22.9 C 44.133 23.08 44.101 23.282 44.13 23.48 C 44.158 23.677 44.245 23.862 44.38 24.01 C 46.357 26.122 47.827 28.656 48.68 31.42 C 48.742 31.624 48.867 31.803 49.038 31.931 C 49.209 32.059 49.417 32.128 49.63 32.13 L 49.74 32.13 C 49.969 32.106 50.183 32.003 50.346 31.839 C 50.508 31.675 50.608 31.46 50.63 31.23 L 51 27.68 L 56 24.84 C 56.162 24.749 56.296 24.615 56.386 24.452 C 56.476 24.29 56.519 24.106 56.51 23.92 C 56.504 23.737 56.448 23.558 56.347 23.405 C 56.246 23.252 56.106 23.129 55.94 23.05 Z M 11.49 37 C 11.5 35.4 11.71 33.81 12.11 32.26 C 12.152 32.078 12.143 31.888 12.083 31.711 C 12.023 31.535 11.914 31.378 11.77 31.26 L 9.54 29.42 C 9.4 29.312 9.233 29.243 9.058 29.22 C 8.882 29.197 8.703 29.221 8.54 29.29 C 8.371 29.368 8.227 29.492 8.125 29.647 C 8.022 29.803 7.965 29.984 7.96 30.17 L 7.84 34.79 L 3.91 37.31 C 3.746 37.415 3.616 37.565 3.536 37.743 C 3.456 37.92 3.429 38.118 3.46 38.31 C 3.483 38.495 3.557 38.669 3.673 38.814 C 3.79 38.959 3.945 39.068 4.12 39.13 L 8.48 40.68 L 9.68 45.14 C 9.729 45.32 9.826 45.483 9.962 45.61 C 10.098 45.737 10.267 45.824 10.45 45.86 L 10.65 45.86 C 10.803 45.86 10.953 45.824 11.09 45.757 C 11.227 45.689 11.347 45.591 11.44 45.47 L 12.44 44.2 C 12.541 44.068 12.608 43.913 12.634 43.749 C 12.66 43.585 12.645 43.417 12.59 43.26 C 11.874 41.25 11.503 39.134 11.49 37 Z"
        fill="#ffefb0"/>
    <path
        id="path_9"
        d="M 41.24 23.84 C 42.259 22.69 42.825 21.207 42.83 19.67 L 42.83 12 L 43.83 12 C 44.625 12 45.389 11.684 45.951 11.121 C 46.514 10.559 46.83 9.795 46.83 9 C 46.83 8.205 46.514 7.441 45.951 6.879 C 45.389 6.316 44.625 6 43.83 6 L 17.16 6 C 16.365 6 15.601 6.316 15.039 6.879 C 14.476 7.441 14.16 8.205 14.16 9 C 14.16 9.795 14.476 10.559 15.039 11.121 C 15.601 11.684 16.365 12 17.16 12 L 18.16 12 L 18.16 19.67 C 18.16 21.206 18.722 22.69 19.74 23.84 C 16.627 26.381 14.514 29.945 13.778 33.896 C 13.042 37.846 13.73 41.932 15.718 45.424 C 17.707 48.916 20.871 51.591 24.645 52.973 C 28.418 54.355 32.562 54.355 36.335 52.973 C 40.109 51.591 43.273 48.916 45.262 45.424 C 47.25 41.932 47.938 37.846 47.202 33.896 C 46.466 29.945 44.353 26.381 41.24 23.84 Z M 17.16 10 C 16.895 10 16.64 9.895 16.453 9.707 C 16.265 9.52 16.16 9.265 16.16 9 C 16.16 8.735 16.265 8.48 16.453 8.293 C 16.64 8.105 16.895 8 17.16 8 L 43.83 8 C 44.095 8 44.35 8.105 44.537 8.293 C 44.725 8.48 44.83 8.735 44.83 9 C 44.83 9.265 44.725 9.52 44.537 9.707 C 44.35 9.895 44.095 10 43.83 10 L 17.16 10 Z M 40.83 12 L 40.83 19.67 C 40.827 20.794 40.381 21.872 39.59 22.67 C 38.313 21.856 36.935 21.214 35.49 20.76 L 35.49 12 L 40.83 12 Z M 33.49 12 L 33.49 20.28 C 32.5 20.1 31.496 20.006 30.49 20 C 29.48 20.01 28.48 20.1 27.49 20.28 L 27.49 12 L 33.49 12 Z M 25.49 12 L 25.49 20.75 C 24.048 21.202 22.672 21.844 21.4 22.66 C 20.609 21.862 20.163 20.784 20.16 19.66 L 20.16 12 L 25.49 12 Z M 30.49 52 C 22.21 52 15.49 45.28 15.49 37 C 15.49 28.72 22.21 22 30.49 22 C 38.77 22 45.49 28.72 45.49 37 C 45.49 40.977 43.909 44.795 41.097 47.607 C 38.285 50.419 34.467 52 30.49 52 Z"
        fill="#2c3f67"/>
    <path
        id="path_10"
        d="M 30.49 24 C 23.31 24 17.49 29.82 17.49 37 C 17.49 44.18 23.31 50 30.49 50 C 37.67 50 43.49 44.18 43.49 37 C 43.49 29.82 37.67 24 30.49 24 Z M 30.49 48 C 27.574 48 24.774 46.84 22.712 44.778 C 20.65 42.716 19.49 39.916 19.49 37 C 19.49 34.084 20.65 31.284 22.712 29.222 C 24.774 27.16 27.574 26 30.49 26 C 33.406 26 36.206 27.16 38.268 29.222 C 40.33 31.284 41.49 34.084 41.49 37 C 41.49 43.07 36.56 48 30.49 48 Z"
        fill="#2c3f67"/>
    <path
        id="path_11"
        d="M 33.06 29 L 29.06 29 C 28.893 29 28.728 29.043 28.581 29.123 C 28.435 29.203 28.31 29.319 28.22 29.46 L 25.22 34.13 C 25.09 34.332 25.038 34.574 25.072 34.812 C 25.106 35.05 25.225 35.268 25.406 35.425 C 25.588 35.583 25.82 35.67 26.06 35.67 L 28.06 35.67 L 28.06 44 C 28.06 44.265 28.165 44.52 28.353 44.707 C 28.54 44.895 28.795 45 29.06 45 L 33.06 45 C 33.325 45 33.58 44.895 33.767 44.707 C 33.955 44.52 34.06 44.265 34.06 44 L 34.06 30 C 34.06 29.735 33.955 29.48 33.767 29.293 C 33.58 29.105 33.325 29 33.06 29 Z M 32.06 43 L 30.06 43 L 30.06 34.67 C 30.06 34.405 29.955 34.15 29.767 33.963 C 29.58 33.775 29.325 33.67 29.06 33.67 L 27.89 33.67 L 29.61 31 L 32.06 31 L 32.06 43 Z M 55.94 23.05 L 50.6 20.75 L 49.46 15 C 49.424 14.817 49.337 14.648 49.21 14.512 C 49.083 14.376 48.92 14.279 48.74 14.23 C 48.561 14.184 48.373 14.189 48.196 14.244 C 48.02 14.298 47.862 14.401 47.74 14.54 L 45.09 17.54 C 44.928 17.741 44.85 17.996 44.872 18.253 C 44.894 18.509 45.015 18.748 45.208 18.918 C 45.402 19.088 45.653 19.177 45.911 19.166 C 46.168 19.156 46.412 19.046 46.59 18.86 L 47.91 17.36 L 48.75 21.59 C 48.78 21.75 48.849 21.9 48.95 22.027 C 49.051 22.154 49.181 22.255 49.33 22.32 L 53.33 24.03 L 49.56 26.13 C 49.396 26.21 49.257 26.334 49.159 26.487 C 49.06 26.64 49.005 26.818 49 27 L 48.62 31.11 C 48.598 31.346 48.66 31.582 48.796 31.776 C 48.931 31.97 49.131 32.109 49.36 32.17 C 49.413 32.18 49.467 32.18 49.52 32.17 C 49.784 32.195 50.047 32.114 50.251 31.946 C 50.456 31.777 50.585 31.534 50.61 31.27 L 51 27.68 L 56 24.84 C 56.162 24.749 56.296 24.615 56.386 24.452 C 56.476 24.29 56.519 24.106 56.51 23.92 C 56.504 23.737 56.448 23.558 56.347 23.405 C 56.246 23.252 56.106 23.129 55.94 23.05 Z M 11.11 42.71 L 10.28 39.61 C 10.237 39.453 10.156 39.309 10.044 39.191 C 9.933 39.072 9.794 38.983 9.64 38.93 L 6.7 37.93 L 9.32 36.22 C 9.455 36.131 9.566 36.011 9.644 35.87 C 9.723 35.729 9.766 35.571 9.77 35.41 L 9.85 32.29 L 10.52 32.83 C 10.728 32.986 10.988 33.055 11.246 33.023 C 11.503 32.99 11.739 32.858 11.901 32.656 C 12.063 32.453 12.141 32.195 12.116 31.936 C 12.092 31.678 11.968 31.439 11.77 31.27 L 9.54 29.42 C 9.4 29.312 9.233 29.243 9.058 29.22 C 8.882 29.197 8.703 29.221 8.54 29.29 C 8.371 29.368 8.227 29.492 8.125 29.647 C 8.022 29.803 7.965 29.984 7.96 30.17 L 7.84 34.79 L 3.91 37.31 C 3.746 37.415 3.616 37.565 3.536 37.743 C 3.456 37.92 3.429 38.118 3.46 38.31 C 3.483 38.495 3.557 38.669 3.673 38.814 C 3.79 38.959 3.945 39.068 4.12 39.13 L 8.48 40.68 L 9.68 45.14 C 9.729 45.32 9.826 45.483 9.962 45.61 C 10.098 45.737 10.267 45.824 10.45 45.86 C 10.652 45.903 10.863 45.879 11.05 45.79 C 11.203 45.724 11.337 45.621 11.44 45.49 L 12.44 44.22 C 12.581 44.036 12.653 43.809 12.645 43.577 C 12.636 43.346 12.548 43.124 12.394 42.95 C 12.241 42.777 12.032 42.662 11.803 42.625 C 11.574 42.589 11.34 42.633 11.14 42.75 L 11.11 42.71 Z"
        fill="#2c3f67"/>
</svg>
