<svg
    xmlns="http://www.w3.org/2000/svg"
    viewBox="0 0 60 60"
    id="vector">
    <path
        id="path"
        d="M 0 0 L 60 0 L 60 60 L 0 60 Z"
        fill="#ffffff"
        fill-opacity="0.01"
        fill-rule="evenodd"/>
    <path
        id="path_1"
        d="M 13.05 35.2 L 16.9 35.2 C 17.375 35.2 17.83 35.389 18.166 35.724 C 18.501 36.06 18.69 36.515 18.69 36.99 L 18.69 51.11 C 18.69 51.585 18.501 52.04 18.166 52.376 C 17.83 52.711 17.375 52.9 16.9 52.9 L 13.05 52.9 C 12.575 52.9 12.12 52.711 11.784 52.376 C 11.449 52.04 11.26 51.585 11.26 51.11 L 11.26 36.99 C 11.26 36.515 11.449 36.06 11.784 35.724 C 12.12 35.389 12.575 35.2 13.05 35.2 Z"
        fill="#f6716f"/>
    <path
        id="path_2"
        d="M 11.26 49.38 L 11.26 51.11 C 11.26 52.099 12.061 52.9 13.05 52.9 L 16.91 52.9 C 17.385 52.9 17.84 52.711 18.176 52.376 C 18.511 52.04 18.7 51.585 18.7 51.11 L 18.7 49.38 L 11.26 49.38 Z"
        fill="#f0504d"/>
    <path
        id="path_3"
        d="M 7.66 38.24 L 11.27 38.24 L 11.27 49.87 L 7.66 49.87 Z M 42.64 42.27 L 43.31 42.27 C 43.986 42.229 44.621 41.931 45.085 41.437 C 45.548 40.944 45.807 40.292 45.807 39.615 C 45.807 38.938 45.548 38.286 45.085 37.793 C 44.621 37.299 43.986 37.001 43.31 36.96 L 42.63 36.96 C 43.334 36.96 44.011 36.681 44.511 36.185 C 45.011 35.689 45.295 35.014 45.3 34.31 C 45.297 33.604 45.015 32.927 44.514 32.428 C 44.014 31.93 43.336 31.65 42.63 31.65 L 35.57 31.65 C 34.843 31.65 34.148 31.95 33.65 32.48 C 33.264 32.154 32.973 31.731 32.806 31.254 C 32.639 30.778 32.602 30.265 32.7 29.77 C 32.99 28.285 33.07 26.767 32.94 25.26 C 32.823 23.921 32.179 22.682 31.15 21.818 C 30.12 20.954 28.789 20.534 27.45 20.65 C 27.16 20.675 26.891 20.815 26.704 21.038 C 26.516 21.261 26.425 21.55 26.45 21.84 L 26.51 22.51 C 26.778 25.612 26.031 28.72 24.38 31.36 L 19.38 37.94 C 18.971 38.352 18.74 38.909 18.74 39.49 L 18.74 49 C 18.738 49.385 18.838 49.763 19.029 50.097 C 19.22 50.431 19.497 50.708 19.83 50.9 C 22.038 52.205 24.555 52.895 27.12 52.9 L 41.76 52.9 C 42.227 52.9 42.686 52.777 43.09 52.544 C 43.494 52.31 43.83 51.974 44.064 51.57 C 44.297 51.166 44.42 50.707 44.42 50.24 C 44.417 49.536 44.136 48.86 43.638 48.362 C 43.14 47.864 42.464 47.583 41.76 47.58 L 42.64 47.58 C 43.316 47.539 43.951 47.241 44.415 46.747 C 44.878 46.254 45.137 45.602 45.137 44.925 C 45.137 44.248 44.878 43.596 44.415 43.103 C 43.951 42.609 43.316 42.311 42.64 42.27 Z"
        fill="#ffe3ba"/>
    <path
        id="path_4"
        d="M 47 12.45 L 48 15.89 C 48.035 16.005 48.097 16.11 48.181 16.197 C 48.264 16.284 48.366 16.35 48.48 16.39 L 51.86 17.53 C 52.033 17.596 52.176 17.724 52.26 17.89 C 52.345 18.055 52.365 18.246 52.317 18.425 C 52.269 18.604 52.156 18.759 52 18.86 L 49 20.86 C 48.899 20.929 48.817 21.022 48.759 21.13 C 48.702 21.238 48.671 21.358 48.67 21.48 L 48.67 25.05 C 48.667 25.237 48.594 25.416 48.466 25.551 C 48.339 25.687 48.164 25.771 47.978 25.785 C 47.792 25.8 47.607 25.744 47.46 25.63 L 44.65 23.43 C 44.556 23.354 44.445 23.302 44.326 23.279 C 44.208 23.257 44.085 23.264 43.97 23.3 L 40.56 24.37 C 40.377 24.431 40.177 24.419 40.003 24.337 C 39.828 24.255 39.692 24.108 39.622 23.928 C 39.553 23.748 39.556 23.548 39.63 23.37 L 40.87 20 C 40.911 19.886 40.924 19.763 40.906 19.642 C 40.889 19.522 40.842 19.408 40.77 19.31 L 38.7 16.43 C 38.593 16.277 38.547 16.089 38.57 15.904 C 38.594 15.719 38.686 15.549 38.828 15.428 C 38.971 15.307 39.153 15.244 39.34 15.25 L 42.91 15.38 C 43.032 15.386 43.153 15.361 43.263 15.309 C 43.372 15.257 43.468 15.178 43.54 15.08 L 45.67 12.21 C 45.781 12.057 45.946 11.951 46.132 11.914 C 46.317 11.878 46.51 11.913 46.671 12.012 C 46.832 12.111 46.95 12.268 47 12.45 Z"
        fill="#ffb038"/>
    <path
        id="path_5"
        d="M 52.15 16.58 L 48.89 15.48 L 48 12.18 C 47.88 11.759 47.606 11.398 47.233 11.169 C 46.859 10.94 46.413 10.859 45.983 10.942 C 45.554 11.026 45.17 11.268 44.91 11.62 L 42.91 14.38 L 39.48 14.25 C 39.034 14.209 38.589 14.341 38.238 14.618 C 37.886 14.895 37.654 15.297 37.589 15.74 C 37.525 16.183 37.632 16.634 37.89 17 L 39.89 19.81 L 38.7 23.05 C 38.588 23.355 38.564 23.686 38.631 24.005 C 38.698 24.323 38.854 24.616 39.08 24.85 C 39.303 25.09 39.59 25.261 39.908 25.343 C 40.225 25.424 40.559 25.413 40.87 25.31 L 44.15 24.31 L 46.86 26.42 C 47.082 26.596 47.342 26.716 47.62 26.77 C 47.983 26.84 48.36 26.788 48.69 26.62 C 48.988 26.485 49.241 26.267 49.419 25.992 C 49.596 25.718 49.69 25.397 49.69 25.07 L 49.69 21.63 L 52.54 19.71 C 52.903 19.466 53.161 19.094 53.263 18.669 C 53.366 18.243 53.305 17.795 53.094 17.412 C 52.882 17.029 52.535 16.739 52.12 16.6 L 52.15 16.58 Z M 48.49 20 C 48.257 20.16 48.066 20.373 47.932 20.622 C 47.799 20.871 47.726 21.148 47.72 21.43 L 47.72 24.5 L 45.31 22.61 C 45.085 22.435 44.821 22.318 44.54 22.27 C 44.264 22.217 43.978 22.234 43.71 22.32 L 40.79 23.23 L 41.84 20.36 C 41.935 20.092 41.964 19.805 41.926 19.523 C 41.887 19.242 41.783 18.973 41.62 18.74 L 39.84 16.25 L 42.9 16.36 C 43.185 16.372 43.468 16.313 43.724 16.189 C 43.98 16.065 44.202 15.88 44.37 15.65 L 46.2 13.2 L 47 16.16 C 47.161 16.71 47.578 17.15 48.12 17.34 L 51.02 18.34 L 48.49 20 Z M 38.38 9.86 C 38.468 10.016 38.596 10.146 38.75 10.235 C 38.905 10.325 39.081 10.371 39.26 10.37 C 39.428 10.371 39.593 10.33 39.74 10.25 C 39.894 10.165 40.022 10.041 40.113 9.89 C 40.203 9.74 40.252 9.568 40.255 9.392 C 40.258 9.217 40.215 9.044 40.13 8.89 L 39.09 7 C 38.954 6.774 38.736 6.61 38.48 6.543 C 38.225 6.476 37.954 6.512 37.725 6.643 C 37.496 6.774 37.328 6.989 37.256 7.243 C 37.184 7.496 37.214 7.768 37.34 8 L 38.38 9.86 Z M 42.5 9 L 42.56 9 C 42.817 9 43.064 8.902 43.25 8.725 C 43.436 8.548 43.547 8.306 43.56 8.05 L 43.56 7.05 C 43.572 6.785 43.479 6.526 43.301 6.33 C 43.123 6.134 42.874 6.016 42.61 6.003 C 42.345 5.99 42.086 6.082 41.889 6.26 C 41.693 6.437 41.574 6.685 41.56 6.95 L 41.56 7.95 C 41.546 8.214 41.638 8.472 41.814 8.669 C 41.99 8.865 42.237 8.985 42.5 9 Z M 35 11.86 L 35.87 12.34 C 36.017 12.42 36.182 12.461 36.35 12.46 C 36.57 12.457 36.782 12.382 36.955 12.246 C 37.128 12.11 37.251 11.921 37.306 11.709 C 37.36 11.496 37.343 11.271 37.257 11.069 C 37.171 10.867 37.021 10.698 36.83 10.59 L 36 10.11 C 35.815 9.999 35.599 9.95 35.384 9.971 C 35.17 9.992 34.967 10.081 34.807 10.226 C 34.647 10.37 34.537 10.562 34.494 10.774 C 34.451 10.985 34.477 11.205 34.568 11.4 C 34.659 11.596 34.811 11.757 35 11.86 Z"
        fill="#2c3f67"/>
    <path
        id="path_6"
        d="M 15 48.09 C 14.748 48.089 14.503 48.168 14.299 48.316 C 14.095 48.464 13.943 48.672 13.865 48.912 C 13.787 49.151 13.787 49.409 13.865 49.648 C 13.943 49.888 14.095 50.096 14.299 50.244 C 14.503 50.392 14.748 50.471 15 50.47 C 15.315 50.469 15.617 50.343 15.839 50.12 C 16.061 49.897 16.186 49.595 16.186 49.28 C 16.186 48.965 16.061 48.663 15.839 48.44 C 15.617 48.217 15.315 48.091 15 48.09 Z"
        fill="#3d3d63"/>
    <path
        id="path_7"
        d="M 47 39.65 C 47.005 39.064 46.868 38.485 46.602 37.963 C 46.335 37.441 45.947 36.99 45.47 36.65 C 46.08 35.942 46.394 35.024 46.346 34.091 C 46.297 33.157 45.889 32.277 45.209 31.637 C 44.528 30.996 43.625 30.642 42.69 30.65 L 35.56 30.65 C 34.961 30.653 34.373 30.808 33.85 31.1 C 33.684 30.759 33.624 30.375 33.68 30 C 33.988 28.423 34.072 26.81 33.93 25.21 C 33.79 23.608 33.019 22.125 31.788 21.09 C 30.556 20.055 28.962 19.551 27.36 19.69 C 26.992 19.722 26.639 19.85 26.337 20.062 C 26.034 20.274 25.793 20.562 25.637 20.897 C 25.482 21.232 25.417 21.602 25.45 21.97 L 25.51 22.64 C 25.756 25.494 25.075 28.353 23.57 30.79 L 19.52 36.09 C 19.328 35.55 18.975 35.083 18.508 34.752 C 18.041 34.421 17.483 34.242 16.91 34.24 L 13.05 34.24 C 12.315 34.24 11.61 34.53 11.088 35.047 C 10.566 35.563 10.268 36.266 10.26 37 L 10.26 37.25 L 7.66 37.25 C 7.395 37.25 7.14 37.355 6.953 37.543 C 6.765 37.73 6.66 37.985 6.66 38.25 C 6.66 38.515 6.765 38.77 6.953 38.957 C 7.14 39.145 7.395 39.25 7.66 39.25 L 10.26 39.25 L 10.26 48.87 L 7.66 48.87 C 7.395 48.87 7.14 48.975 6.953 49.163 C 6.765 49.35 6.66 49.605 6.66 49.87 C 6.66 50.135 6.765 50.39 6.953 50.577 C 7.14 50.765 7.395 50.87 7.66 50.87 L 10.26 50.87 L 10.26 51.12 C 10.26 51.86 10.554 52.57 11.077 53.093 C 11.6 53.616 12.31 53.91 13.05 53.91 L 16.91 53.91 C 17.507 53.903 18.087 53.705 18.563 53.345 C 19.04 52.985 19.389 52.482 19.56 51.91 C 21.855 53.207 24.444 53.896 27.08 53.91 L 41.77 53.91 C 42.738 53.91 43.667 53.525 44.351 52.841 C 45.035 52.157 45.42 51.228 45.42 50.26 C 45.423 49.439 45.144 48.641 44.63 48 C 45.131 47.674 45.544 47.229 45.833 46.706 C 46.122 46.183 46.279 45.598 46.29 45 C 46.288 44.146 45.983 43.32 45.43 42.67 C 45.915 42.33 46.312 41.878 46.585 41.352 C 46.858 40.827 47.001 40.243 47 39.65 Z M 17.74 44.65 L 17.74 51.08 C 17.737 51.289 17.653 51.488 17.506 51.636 C 17.358 51.783 17.159 51.867 16.95 51.87 L 13.05 51.87 C 12.841 51.87 12.639 51.787 12.491 51.639 C 12.343 51.491 12.26 51.289 12.26 51.08 L 12.26 37 C 12.26 36.791 12.343 36.589 12.491 36.441 C 12.639 36.293 12.841 36.21 13.05 36.21 L 16.91 36.21 C 17.119 36.213 17.318 36.297 17.466 36.444 C 17.613 36.592 17.697 36.791 17.7 37 L 17.74 44.65 Z M 35.6 32.65 L 42.69 32.65 C 43.127 32.65 43.547 32.824 43.857 33.133 C 44.166 33.443 44.34 33.863 44.34 34.3 C 44.34 34.737 44.166 35.157 43.857 35.467 C 43.547 35.776 43.127 35.95 42.69 35.95 L 35.56 35.95 C 35.123 35.95 34.703 35.776 34.393 35.467 C 34.084 35.157 33.91 34.737 33.91 34.3 C 33.91 33.863 34.084 33.443 34.393 33.133 C 34.703 32.824 35.123 32.65 35.56 32.65 L 35.6 32.65 Z M 33.19 51.9 L 27.08 51.9 C 24.694 51.897 22.351 51.262 20.29 50.06 C 20.114 49.958 19.968 49.812 19.865 49.637 C 19.761 49.462 19.705 49.263 19.7 49.06 L 19.7 39.49 C 19.699 39.332 19.73 39.176 19.79 39.03 C 19.85 38.884 19.938 38.751 20.05 38.64 L 20.14 38.54 L 25.21 31.89 C 26.98 29.07 27.785 25.748 27.5 22.43 L 27.44 21.75 C 27.44 21.7 27.44 21.65 27.53 21.64 C 28.068 21.586 28.611 21.641 29.126 21.803 C 29.642 21.964 30.119 22.229 30.53 22.58 C 30.942 22.92 31.282 23.34 31.53 23.814 C 31.777 24.288 31.927 24.807 31.97 25.34 C 32.097 26.757 32.023 28.184 31.75 29.58 C 31.646 30.1 31.653 30.636 31.77 31.153 C 31.887 31.669 32.112 32.156 32.43 32.58 C 32.125 33.095 31.956 33.68 31.94 34.278 C 31.924 34.877 32.062 35.47 32.34 36 C 31.462 36.064 30.636 36.444 30.016 37.069 C 29.397 37.695 29.025 38.525 28.97 39.403 C 28.915 40.282 29.181 41.152 29.718 41.85 C 30.254 42.548 31.027 43.028 31.89 43.2 C 31.583 43.749 31.428 44.371 31.44 45 C 31.444 45.67 31.632 46.327 31.985 46.897 C 32.338 47.467 32.842 47.928 33.44 48.23 C 33.02 48.839 32.794 49.56 32.79 50.3 C 32.796 50.857 32.933 51.406 33.19 51.9 Z M 41.77 51.9 L 36.42 51.9 C 35.983 51.9 35.563 51.726 35.253 51.417 C 34.944 51.107 34.77 50.687 34.77 50.25 C 34.77 49.813 34.944 49.393 35.253 49.083 C 35.563 48.774 35.983 48.6 36.42 48.6 L 41.77 48.6 C 42.207 48.6 42.627 48.774 42.937 49.083 C 43.246 49.393 43.42 49.813 43.42 50.25 C 43.42 50.687 43.246 51.107 42.937 51.417 C 42.627 51.726 42.207 51.9 41.77 51.9 Z M 42.64 46.6 L 35.09 46.6 C 34.653 46.6 34.233 46.426 33.923 46.117 C 33.614 45.807 33.44 45.387 33.44 44.95 C 33.44 44.513 33.614 44.093 33.923 43.783 C 34.233 43.474 34.653 43.3 35.09 43.3 L 42.64 43.3 C 43.077 43.3 43.497 43.474 43.807 43.783 C 44.116 44.093 44.29 44.513 44.29 44.95 C 44.29 45.387 44.116 45.807 43.807 46.117 C 43.497 46.426 43.077 46.6 42.64 46.6 Z M 43.31 41.3 L 32.63 41.3 C 32.193 41.3 31.773 41.126 31.463 40.817 C 31.154 40.507 30.98 40.087 30.98 39.65 C 30.98 39.213 31.154 38.793 31.463 38.483 C 31.773 38.174 32.193 38 32.63 38 L 43.31 38 C 43.747 38 44.167 38.174 44.477 38.483 C 44.786 38.793 44.96 39.213 44.96 39.65 C 44.96 40.087 44.786 40.507 44.477 40.817 C 44.167 41.126 43.747 41.3 43.31 41.3 Z"
        fill="#2c3f67"/>
</svg>
