<svg
    xmlns="http://www.w3.org/2000/svg"
    viewBox="0 0 24 24"
    id="vector">
    <path
        id="path"
        d="M 12 12 M 0 12 C 0 8.819 1.265 5.764 3.515 3.515 C 5.764 1.265 8.819 0 12 0 C 15.181 0 18.236 1.265 20.485 3.515 C 22.735 5.764 24 8.819 24 12 C 24 15.181 22.735 18.236 20.485 20.485 C 18.236 22.735 15.181 24 12 24 C 8.819 24 5.764 22.735 3.515 20.485 C 1.265 18.236 0 15.181 0 12"
        fill="#ffcc23"/>
    <path
        id="path_1"
        d="M 12 23 C 18.075 23 23 18.075 23 12 C 23 5.925 18.075 1 12 1 C 5.925 1 1 5.925 1 12 C 1 18.075 5.925 23 12 23 Z M 12 24 C 5.373 24 0 18.627 0 12 C 0 5.373 5.373 0 12 0 C 18.627 0 24 5.373 24 12 C 24 18.627 18.627 24 12 24 Z"
        fill="#16324c"/>
    <path
        id="path_2"
        d="M 13 11 L 18.5 11 C 18.633 11 18.76 11.053 18.854 11.146 C 18.947 11.24 19 11.367 19 11.5 L 19 12.5 C 19 12.633 18.947 12.76 18.854 12.854 C 18.76 12.947 18.633 13 18.5 13 L 13 13 L 13 17.5 C 13 17.633 12.947 17.76 12.854 17.854 C 12.76 17.947 12.633 18 12.5 18 L 11.5 18 C 11.367 18 11.24 17.947 11.146 17.854 C 11.053 17.76 11 17.633 11 17.5 L 11 13 L 5.5 13 C 5.367 13 5.24 12.947 5.146 12.854 C 5.053 12.76 5 12.633 5 12.5 L 5 11.5 C 5 11.367 5.053 11.24 5.146 11.146 C 5.24 11.053 5.367 11 5.5 11 L 11 11 L 11 5.5 C 11 5.367 11.053 5.24 11.146 5.146 C 11.24 5.053 11.367 5 11.5 5 L 12.5 5 C 12.633 5 12.76 5.053 12.854 5.146 C 12.947 5.24 13 5.367 13 5.5 L 13 11 Z"
        fill="#16324c"/>
</svg>
