<svg
    xmlns="http://www.w3.org/2000/svg"
    viewBox="0 0 60 60"
    id="vector">
    <path
        id="path"
        d="M 0 0 L 60 0 L 60 60 L 0 60 Z"
        fill="#ffffff"
        fill-opacity="0.01"
        fill-rule="evenodd"/>
    <path
        id="path_1"
        d="M 53.47 26.83 L 53.47 27.36 C 53.456 28.114 53.192 28.842 52.719 29.43 C 52.247 30.018 51.593 30.433 50.86 30.61 C 49.719 30.88 48.693 31.506 47.931 32.396 C 47.169 33.287 46.71 34.398 46.62 35.566 C 46.53 36.735 46.813 37.903 47.43 38.9 C 47.823 39.543 47.994 40.298 47.916 41.048 C 47.838 41.797 47.516 42.501 47 43.05 L 46.26 43.79 C 45.717 44.312 45.017 44.64 44.268 44.723 C 43.52 44.806 42.764 44.64 42.12 44.25 C 41.121 43.637 39.953 43.355 38.785 43.446 C 37.617 43.537 36.506 43.996 35.615 44.756 C 34.723 45.517 34.094 46.541 33.82 47.68 C 33.643 48.413 33.228 49.067 32.64 49.539 C 32.052 50.012 31.324 50.276 30.57 50.29 L 29.47 50.29 C 28.716 50.276 27.988 50.012 27.4 49.539 C 26.812 49.067 26.397 48.413 26.22 47.68 C 25.946 46.541 25.317 45.517 24.425 44.756 C 23.534 43.996 22.423 43.537 21.255 43.446 C 20.087 43.355 18.919 43.637 17.92 44.25 C 17.276 44.64 16.52 44.806 15.772 44.723 C 15.023 44.64 14.323 44.312 13.78 43.79 L 13 43.05 C 12.479 42.505 12.151 41.803 12.068 41.053 C 11.985 40.303 12.151 39.546 12.54 38.9 C 13.157 37.903 13.44 36.735 13.35 35.566 C 13.26 34.398 12.801 33.287 12.039 32.396 C 11.277 31.506 10.251 30.88 9.11 30.61 C 8.377 30.433 7.723 30.018 7.251 29.43 C 6.778 28.842 6.514 28.114 6.5 27.36 L 6.5 26.83 L 6.5 26.3 C 6.514 25.546 6.778 24.818 7.251 24.23 C 7.723 23.642 8.377 23.227 9.11 23.05 C 10.251 22.78 11.277 22.154 12.039 21.264 C 12.801 20.373 13.26 19.262 13.35 18.094 C 13.44 16.925 13.157 15.757 12.54 14.76 C 12.149 14.114 11.983 13.357 12.066 12.607 C 12.149 11.857 12.477 11.155 13 10.61 L 13.74 9.87 C 14.283 9.348 14.983 9.02 15.732 8.937 C 16.48 8.854 17.236 9.02 17.88 9.41 C 18.877 10.041 20.05 10.336 21.227 10.253 C 22.404 10.169 23.524 9.711 24.422 8.946 C 25.32 8.181 25.95 7.149 26.22 6 C 26.397 5.267 26.812 4.613 27.4 4.141 C 27.988 3.668 28.716 3.404 29.47 3.39 L 30.53 3.39 C 31.284 3.404 32.012 3.668 32.6 4.141 C 33.188 4.613 33.603 5.267 33.78 6 C 34.049 7.143 34.675 8.171 35.568 8.934 C 36.46 9.697 37.572 10.157 38.743 10.246 C 39.913 10.335 41.083 10.049 42.08 9.43 C 42.724 9.04 43.48 8.874 44.228 8.957 C 44.977 9.04 45.677 9.368 46.22 9.89 L 46.96 10.63 C 47.483 11.175 47.811 11.877 47.894 12.627 C 47.977 13.377 47.811 14.134 47.42 14.78 C 46.803 15.777 46.52 16.945 46.61 18.114 C 46.7 19.282 47.159 20.393 47.921 21.284 C 48.683 22.174 49.709 22.8 50.85 23.07 C 51.583 23.247 52.237 23.662 52.709 24.25 C 53.182 24.838 53.446 25.566 53.46 26.32 C 53.47 26.48 53.47 26.65 53.47 26.83 Z"
        fill="#ffefb0"/>
    <path
        id="path_2"
        d="M 45.21 26.83 C 45.21 18.11 37.87 12.2 29.03 12.75 C 21.43 13.22 15.26 18.32 14.82 25.92 C 14.683 28.197 15.061 30.476 15.926 32.587 C 16.792 34.697 18.123 36.585 19.82 38.11 C 21.323 39.495 22.519 41.18 23.33 43.055 C 24.142 44.931 24.55 46.956 24.53 49 L 35.47 49 C 35.477 46.93 35.913 44.885 36.749 42.992 C 37.586 41.099 38.805 39.399 40.33 38 C 41.872 36.577 43.101 34.849 43.941 32.927 C 44.781 31.004 45.213 28.928 45.21 26.83 Z"
        fill="#ffc670"/>
    <path
        id="path_3"
        d="M 16.5 29.61 C 16.489 26.349 17.542 23.172 19.498 20.563 C 21.453 17.954 24.208 16.052 27.341 15.148 C 30.474 14.244 33.818 14.385 36.863 15.551 C 39.908 16.717 42.492 18.845 44.22 21.61 C 41.94 15.87 36 12.32 29 12.75 C 21.4 13.22 15.23 18.32 14.79 25.92 C 14.573 29.607 15.715 33.248 18 36.15 C 17.01 34.112 16.497 31.875 16.5 29.61 Z"
        fill="#ffe88a"/>
    <path
        id="path_4"
        d="M 30 40.52 C 27.541 40.516 25.11 39.989 22.869 38.976 C 20.628 37.962 18.627 36.484 17 34.64 C 17.772 35.929 18.729 37.099 19.84 38.11 C 21.339 39.497 22.532 41.182 23.339 43.058 C 24.147 44.934 24.553 46.958 24.53 49 L 35.47 49 C 35.477 46.93 35.913 44.885 36.749 42.992 C 37.586 41.099 38.805 39.399 40.33 38 C 41.393 37.008 42.309 35.87 43.05 34.62 C 41.42 36.476 39.413 37.962 37.162 38.979 C 34.912 39.997 32.47 40.522 30 40.52 Z"
        fill="#ff9a42"/>
    <path
        id="path_5"
        d="M 35 47.58 C 35.33 48.29 35.5 49.07 35.5 49.85 C 35.5 51.3 34.923 52.692 33.898 53.718 C 32.872 54.743 31.48 55.32 30.03 55.32 C 28.58 55.32 27.188 54.743 26.162 53.718 C 25.137 52.692 24.56 51.3 24.56 49.85 C 24.56 49.07 24.73 48.29 25.06 47.58 L 35 47.58 Z"
        fill="#edf4ff"/>
    <path
        id="path_6"
        d="M 30 53.17 C 28.738 53.172 27.514 52.736 26.537 51.938 C 25.56 51.14 24.89 50.027 24.64 48.79 C 24.568 49.139 24.531 49.494 24.53 49.85 C 24.53 51.3 25.107 52.692 26.132 53.718 C 27.158 54.743 28.55 55.32 30 55.32 C 31.45 55.32 32.842 54.743 33.868 53.718 C 34.893 52.692 35.47 51.3 35.47 49.85 C 35.469 49.494 35.432 49.139 35.36 48.79 C 35.11 50.027 34.44 51.14 33.463 51.938 C 32.486 52.736 31.262 53.172 30 53.17 Z"
        fill="#d8e3f0"/>
    <path
        id="path_7"
        d="M 37.76 48.96 L 22.25 48.96 C 21.741 48.96 21.252 48.758 20.892 48.398 C 20.532 48.038 20.33 47.549 20.33 47.04 L 20.33 46.73 C 20.33 46.221 20.532 45.732 20.892 45.372 C 21.252 45.012 21.741 44.81 22.25 44.81 L 37.76 44.81 C 38.269 44.81 38.758 45.012 39.118 45.372 C 39.478 45.732 39.68 46.221 39.68 46.73 L 39.68 47.04 C 39.68 47.377 39.591 47.708 39.423 48 C 39.254 48.292 39.012 48.534 38.72 48.703 C 38.428 48.871 38.097 48.96 37.76 48.96 Z"
        fill="#d8e3f0"/>
    <path
        id="path_8"
        d="M 34.82 33.38 L 32.19 33.38 L 32.19 30.75 C 32.19 30.151 32.428 29.576 32.852 29.152 C 33.276 28.728 33.851 28.49 34.45 28.49 L 34.81 28.49 C 35.409 28.49 35.984 28.728 36.408 29.152 C 36.832 29.576 37.07 30.151 37.07 30.75 L 37.07 31.11 C 37.072 31.507 36.969 31.897 36.772 32.241 C 36.575 32.586 36.291 32.872 35.949 33.072 C 35.606 33.272 35.217 33.378 34.82 33.38 Z M 25.17 28.49 L 25.53 28.49 C 26.129 28.49 26.704 28.728 27.128 29.152 C 27.552 29.576 27.79 30.151 27.79 30.75 L 27.79 33.38 L 25.17 33.38 C 24.773 33.38 24.384 33.276 24.04 33.077 C 23.696 32.879 23.411 32.594 23.213 32.25 C 23.014 31.906 22.91 31.517 22.91 31.12 L 22.91 30.76 C 22.908 30.362 23.012 29.971 23.209 29.626 C 23.407 29.281 23.693 28.994 24.037 28.794 C 24.381 28.595 24.772 28.49 25.17 28.49 Z"
        fill="#ffdead"/>
    <path
        id="path_9"
        d="M 46.21 27.83 C 46.207 25.614 45.752 23.423 44.874 21.389 C 43.995 19.355 42.711 17.521 41.1 16 C 38.6 13.59 35.391 12.046 31.948 11.596 C 28.505 11.146 25.006 11.813 21.971 13.498 C 18.935 15.184 16.519 17.8 15.081 20.961 C 13.643 24.121 13.257 27.662 13.98 31.058 C 14.704 34.454 16.499 37.53 19.1 39.83 C 20.6 41.213 21.761 42.924 22.49 44.83 L 22.2 44.83 C 21.687 44.83 21.184 44.965 20.74 45.221 C 20.296 45.477 19.927 45.846 19.671 46.29 C 19.415 46.734 19.28 47.237 19.28 47.75 L 19.28 48 C 19.266 48.526 19.394 49.046 19.65 49.506 C 19.907 49.965 20.284 50.346 20.739 50.609 C 21.195 50.872 21.714 51.007 22.24 51 L 23.58 51 C 23.776 52.564 24.536 54.004 25.718 55.048 C 26.9 56.091 28.424 56.667 30 56.667 C 31.576 56.667 33.1 56.091 34.282 55.048 C 35.464 54.004 36.224 52.564 36.42 51 L 37.76 51 C 38.282 51 38.794 50.861 39.244 50.596 C 39.693 50.331 40.063 49.95 40.316 49.494 C 40.569 49.037 40.694 48.522 40.68 48 L 40.68 47.7 C 40.68 46.926 40.372 46.183 39.825 45.635 C 39.277 45.088 38.534 44.78 37.76 44.78 L 37.51 44.78 C 38.282 42.84 39.478 41.098 41.01 39.68 C 42.641 38.166 43.944 36.332 44.839 34.294 C 45.733 32.256 46.2 30.056 46.21 27.83 Z M 30 54.64 C 28.959 54.639 27.95 54.275 27.149 53.611 C 26.348 52.947 25.803 52.023 25.61 51 L 34.39 51 C 34.197 52.023 33.652 52.947 32.851 53.611 C 32.05 54.275 31.041 54.639 30 54.64 Z M 37.76 46.82 C 38.004 46.82 38.238 46.917 38.411 47.089 C 38.583 47.262 38.68 47.496 38.68 47.74 L 38.68 48 C 38.68 48.244 38.583 48.478 38.411 48.651 C 38.238 48.823 38.004 48.92 37.76 48.92 L 22.24 48.92 C 21.996 48.92 21.762 48.823 21.589 48.651 C 21.417 48.478 21.32 48.244 21.32 48 L 21.32 47.7 C 21.32 47.456 21.417 47.222 21.589 47.049 C 21.762 46.877 21.996 46.78 22.24 46.78 L 37.76 46.82 Z M 26.76 33.38 L 25.17 33.38 C 24.837 33.377 24.518 33.244 24.282 33.008 C 24.046 32.772 23.913 32.453 23.91 32.12 L 23.91 31.75 C 23.913 31.417 24.046 31.098 24.282 30.862 C 24.518 30.626 24.837 30.493 25.17 30.49 L 25.54 30.49 C 25.873 30.493 26.192 30.626 26.428 30.862 C 26.664 31.098 26.797 31.417 26.8 31.75 L 26.76 33.38 Z M 28.76 44.82 L 28.76 35.38 L 31.16 35.38 L 31.16 44.82 L 28.76 44.82 Z M 35.33 44.82 L 33.2 44.82 L 33.2 35.38 L 34.83 35.38 C 36.63 35.38 38.09 33.92 38.09 32.12 L 38.09 31.75 C 38.09 29.95 36.63 28.49 34.83 28.49 L 34.46 28.49 C 33.597 28.493 32.768 28.837 32.158 29.448 C 31.547 30.058 31.203 30.887 31.2 31.75 L 31.2 33.38 L 28.8 33.38 L 28.8 31.75 C 28.797 30.887 28.453 30.058 27.842 29.448 C 27.232 28.837 26.403 28.493 25.54 28.49 L 25.17 28.49 C 24.306 28.49 23.476 28.834 22.865 29.445 C 22.254 30.056 21.91 30.886 21.91 31.75 L 21.91 32.12 C 21.91 33.92 23.37 35.38 25.17 35.38 L 26.8 35.38 L 26.8 44.82 L 24.66 44.82 C 23.839 42.349 22.4 40.128 20.48 38.37 C 18.899 36.947 17.658 35.186 16.851 33.217 C 16.045 31.249 15.692 29.124 15.82 27 C 16.056 23.552 17.528 20.301 19.965 17.85 C 22.402 15.398 25.643 13.907 29.09 13.65 C 31.681 13.486 34.269 14.034 36.57 15.236 C 38.872 16.437 40.801 18.247 42.148 20.467 C 43.495 22.687 44.208 25.234 44.21 27.83 C 44.205 29.787 43.797 31.721 43.013 33.514 C 42.229 35.306 41.084 36.919 39.65 38.25 C 37.706 40.056 36.236 42.312 35.37 44.82 L 35.33 44.82 Z M 33.2 33.38 L 33.2 31.75 C 33.203 31.417 33.336 31.098 33.572 30.862 C 33.808 30.626 34.127 30.493 34.46 30.49 L 34.83 30.49 C 35.163 30.493 35.482 30.626 35.718 30.862 C 35.954 31.098 36.087 31.417 36.09 31.75 L 36.09 32.12 C 36.087 32.453 35.954 32.772 35.718 33.008 C 35.482 33.244 35.163 33.377 34.83 33.38 L 33.2 33.38 Z"
        fill="#3d3d63"/>
    <path
        id="path_10"
        d="M 21.51 19.6 C 20.308 20.766 19.362 22.169 18.73 23.72 C 18.631 23.964 18.631 24.238 18.733 24.481 C 18.834 24.724 19.027 24.918 19.27 25.02 C 19.39 25.07 19.52 25.1 19.65 25.1 C 19.85 25.1 20.046 25.04 20.212 24.928 C 20.378 24.816 20.506 24.656 20.58 24.47 C 21.104 23.165 21.894 21.983 22.9 21 C 23.09 20.816 23.199 20.563 23.203 20.298 C 23.208 20.034 23.107 19.778 22.923 19.587 C 22.739 19.397 22.487 19.287 22.222 19.282 C 21.957 19.277 21.701 19.377 21.51 19.56 L 21.51 19.6 Z M 26.06 16.81 C 25.58 16.97 25.12 17.16 24.67 17.38 C 24.466 17.479 24.302 17.644 24.204 17.849 C 24.106 18.053 24.081 18.285 24.132 18.506 C 24.183 18.726 24.308 18.923 24.485 19.064 C 24.663 19.205 24.883 19.281 25.11 19.28 C 25.262 19.281 25.413 19.246 25.55 19.18 C 25.925 18.994 26.313 18.833 26.71 18.7 C 26.951 18.607 27.148 18.424 27.257 18.189 C 27.366 17.954 27.38 17.686 27.296 17.442 C 27.212 17.197 27.036 16.994 26.805 16.877 C 26.575 16.759 26.308 16.735 26.06 16.81 Z M 30 8.05 C 30.265 8.05 30.52 7.945 30.707 7.757 C 30.895 7.57 31 7.315 31 7.05 L 31 4.36 C 31 4.095 30.895 3.84 30.707 3.653 C 30.52 3.465 30.265 3.36 30 3.36 C 29.735 3.36 29.48 3.465 29.293 3.653 C 29.105 3.84 29 4.095 29 4.36 L 29 7.05 C 29 7.315 29.105 7.57 29.293 7.757 C 29.48 7.945 29.735 8.05 30 8.05 Z M 14.6 13.85 C 14.792 14.013 15.039 14.096 15.291 14.085 C 15.542 14.074 15.781 13.967 15.957 13.788 C 16.134 13.609 16.237 13.369 16.245 13.117 C 16.253 12.866 16.165 12.62 16 12.43 L 14.09 10.53 C 13.899 10.366 13.653 10.281 13.401 10.29 C 13.149 10.3 12.91 10.404 12.732 10.582 C 12.554 10.76 12.45 10.999 12.44 11.251 C 12.431 11.503 12.516 11.749 12.68 11.94 L 14.6 13.85 Z M 9.22 26.83 L 6.53 26.83 C 6.265 26.83 6.01 26.935 5.823 27.123 C 5.635 27.31 5.53 27.565 5.53 27.83 C 5.53 28.095 5.635 28.35 5.823 28.537 C 6.01 28.725 6.265 28.83 6.53 28.83 L 9.22 28.83 C 9.485 28.83 9.74 28.725 9.927 28.537 C 10.115 28.35 10.22 28.095 10.22 27.83 C 10.22 27.565 10.115 27.31 9.927 27.123 C 9.74 26.935 9.485 26.83 9.22 26.83 Z M 14.6 41.81 L 12.7 43.72 C 12.536 43.911 12.451 44.157 12.46 44.409 C 12.47 44.661 12.574 44.9 12.752 45.078 C 12.93 45.256 13.169 45.36 13.421 45.37 C 13.673 45.379 13.919 45.294 14.11 45.13 L 16 43.23 C 16.151 43.08 16.25 42.886 16.284 42.677 C 16.317 42.467 16.284 42.252 16.187 42.062 C 16.091 41.873 15.937 41.719 15.748 41.623 C 15.558 41.526 15.343 41.493 15.133 41.526 C 14.924 41.56 14.73 41.659 14.58 41.81 L 14.6 41.81 Z M 45.4 41.81 C 45.255 41.643 45.058 41.528 44.84 41.485 C 44.623 41.442 44.397 41.472 44.199 41.571 C 44 41.67 43.84 41.833 43.744 42.032 C 43.648 42.232 43.621 42.458 43.667 42.675 C 43.714 42.892 43.831 43.087 44 43.23 L 45.91 45.13 C 46.101 45.294 46.347 45.379 46.599 45.37 C 46.851 45.36 47.09 45.256 47.268 45.078 C 47.446 44.9 47.55 44.661 47.56 44.409 C 47.569 44.157 47.484 43.911 47.32 43.72 L 45.4 41.81 Z M 53.47 26.83 L 50.78 26.83 C 50.515 26.83 50.26 26.935 50.073 27.123 C 49.885 27.31 49.78 27.565 49.78 27.83 C 49.78 28.095 49.885 28.35 50.073 28.537 C 50.26 28.725 50.515 28.83 50.78 28.83 L 53.47 28.83 C 53.735 28.83 53.99 28.725 54.177 28.537 C 54.365 28.35 54.47 28.095 54.47 27.83 C 54.47 27.565 54.365 27.31 54.177 27.123 C 53.99 26.935 53.735 26.83 53.47 26.83 Z M 45.89 10.53 L 44 12.43 C 43.849 12.58 43.75 12.774 43.716 12.983 C 43.683 13.193 43.716 13.408 43.813 13.598 C 43.909 13.787 44.063 13.941 44.252 14.037 C 44.442 14.134 44.657 14.167 44.867 14.134 C 45.076 14.1 45.27 14.001 45.42 13.85 L 47.32 11.94 C 47.484 11.749 47.569 11.503 47.56 11.251 C 47.55 10.999 47.446 10.76 47.268 10.582 C 47.09 10.404 46.851 10.3 46.599 10.29 C 46.347 10.281 46.101 10.366 45.91 10.53 L 45.89 10.53 Z"
        fill="#3d3d63"/>
</svg>
