<svg
    xmlns="http://www.w3.org/2000/svg"
    viewBox="0 0 20 20"
    id="vector">
    <path
        id="path"
        d="M 6 2 C 7.785 2 9.439 2.594 9.914 3 L 12 3 C 12 0.756 7.879 0 6 0 C 4.121 0 0 0.756 0 3 L 0 15 C 0 17.245 4.121 18 6 18 C 6.287 18 6.631 17.98 7 17.942 L 7 15.934 C 6.668 15.976 6.334 15.998 6 16 C 4.084 16 2.318 15.315 2 14.914 L 2 14.221 C 3.32 14.777 4.986 15 6 15 C 6.288 15 6.631 14.98 7 14.942 L 7 12.934 C 6.668 12.976 6.334 12.998 6 13 C 4.064 13 2.291 12.302 2 11.902 L 2 11.221 C 3.32 11.777 4.986 12 6 12 C 6.288 12 6.631 11.98 7 11.942 L 7 9.934 C 6.668 9.976 6.334 9.998 6 10 C 4.064 10 2.291 9.302 2 8.902 L 2 8.221 C 3.32 8.777 4.986 9 6 9 C 6.288 9 6.631 8.98 7 8.942 L 7 6.934 C 6.668 6.976 6.334 6.998 6 7 C 4.064 7 2.291 6.302 2 5.902 L 2 5.221 C 3.32 5.777 4.986 6 6 6 C 6.288 6 6.631 5.98 7 5.942 L 7 3.935 C 6.668 3.976 6.334 3.998 6 4 C 4.216 4 2.562 3.406 2.086 3 C 2.562 2.594 4.215 2 6 2 Z"
        fill="#ffcc23"
        fill-rule="evenodd"/>
    <path
        id="path_1"
        d="M 14 18 C 12.084 18 10.318 17.315 10 16.914 L 10 16.221 C 11.32 16.777 12.985 17 14 17 C 15.015 17 16.68 16.777 18 16.221 L 18 16.914 C 17.682 17.315 15.916 18 14 18 Z M 14 7 C 15.785 7 17.439 7.594 17.914 8 C 17.439 8.406 15.784 9 14 9 C 12.216 9 10.561 8.406 10.086 8 C 10.561 7.594 12.215 7 14 7 Z M 18 13.902 C 17.71 14.302 15.936 15 14 15 C 12.064 15 10.29 14.302 10 13.902 L 10 13.221 C 11.32 13.777 12.985 14 14 14 C 15.015 14 16.68 13.777 18 13.221 L 18 13.902 Z M 18 10.902 C 17.71 11.302 15.936 12 14 12 C 12.064 12 10.29 11.302 10 10.902 L 10 10.221 C 11.32 10.777 12.985 11 14 11 C 15.015 11 16.68 10.777 18 10.221 L 18 10.902 Z M 14 5 C 12.121 5 8 5.756 8 8 L 8 17 C 8 19.245 12.121 20 14 20 C 15.879 20 20 19.245 20 17 L 20 8 C 20 5.756 15.879 5 14 5 Z"
        fill="#ffcc23"
        fill-rule="evenodd"/>
</svg>
