{
  "project_info": {
    "project_number": "476446330192",
    "firebase_url": "https://findwordsflutter.firebaseio.com",
    "project_id": "findwordsflutter",
    "storage_bucket": "findwordsflutter.appspot.com"
  },
  "client": [
    {
      "client_info": {
        "mobilesdk_app_id": "1:476446330192:android:ca57f3ddac62ac8941f055",
        "android_client_info": {
          "package_name": "com.vetalitet.findwords"
        }
      },
      "oauth_client": [
        {
          "client_id": "476446330192-ne5kvi44tvqkq6enj4id4lfb1arump8v.apps.googleusercontent.com",
          "client_type": 3
        }
      ],
      "api_key": [
        {
          "current_key": "AIzaSyC3F4aZD_y0q7EhoifAgI7-OTjnEX3-WW4"
        }
      ],
      "services": {
        "appinvite_service": {
          "other_platform_oauth_client": [
            {
              "client_id": "476446330192-ne5kvi44tvqkq6enj4id4lfb1arump8v.apps.googleusercontent.com",
              "client_type": 3
            }
          ]
        }
      }
    }
  ],
  "configuration_version": "1"
}